sim_logs/dump.vcd
$date
   Wed Apr  8 15:47:23 2026
$end
$version
  2022.2
$end
$timescale
  1ps
$end
$scope module tb_top $end
$var reg 1 ! clk $end
$var reg 1 " rst $end
$var integer 32 # pass_count [31:0] $end
$var integer 32 $ fail_count [31:0] $end
$var integer 32 % test_num [31:0] $end
$scope module uut $end
$var wire 1 & clk $end
$var wire 1 ' rst $end
$var wire 1 ( stall $end
$var wire 1 ) pc_sel $end
$var wire 32 * jump_tgt [31:0] $end
$var wire 32 + pc_if [31:0] $end
$var wire 32 , instr_if [31:0] $end
$var wire 1 - flush_if_id $end
$var wire 32 . pc_id [31:0] $end
$var wire 32 / instr_id [31:0] $end
$var wire 7 0 opcode [6:0] $end
$var wire 5 1 rs1_addr_id [4:0] $end
$var wire 5 2 rs2_addr_id [4:0] $end
$var wire 5 3 rd_addr_id [4:0] $end
$var wire 3 4 funct3_id [2:0] $end
$var wire 1 5 funct7_5_id $end
$var wire 1 6 reg_write_id $end
$var wire 1 7 mem_read_id $end
$var wire 1 8 mem_write_id $end
$var wire 1 9 mem_to_reg_id $end
$var wire 1 : alu_src_id $end
$var wire 1 ; branch_id $end
$var wire 1 < jump_id $end
$var wire 1 = lui_id $end
$var wire 1 > auipc_id $end
$var wire 2 ? alu_op_id [1:0] $end
$var wire 32 @ imm_id [31:0] $end
$var wire 1 A reg_write_wb $end
$var wire 5 B rd_addr_wb [4:0] $end
$var wire 32 C wd_data_wb [31:0] $end
$var wire 32 D rs1_data_id [31:0] $end
$var wire 32 E rs2_data_id [31:0] $end
$var wire 1 F flush_id_ex $end
$var wire 1 G reg_write_ex $end
$var wire 1 H mem_read_ex $end
$var wire 1 I mem_write_ex $end
$var wire 1 J mem_to_reg_ex $end
$var wire 1 K alu_src_ex $end
$var wire 1 L branch_ex $end
$var wire 1 M jump_ex $end
$var wire 1 N lui_ex $end
$var wire 1 O auipc_ex $end
$var wire 2 P alu_op_ex [1:0] $end
$var wire 32 Q pc_ex [31:0] $end
$var wire 32 R rs1_data_ex [31:0] $end
$var wire 32 S rs2_data_ex [31:0] $end
$var wire 32 T imm_ex [31:0] $end
$var wire 5 U rs1_addr_ex [4:0] $end
$var wire 5 V rs2_addr_ex [4:0] $end
$var wire 5 W rd_addr_ex [4:0] $end
$var wire 3 X funct3_ex [2:0] $end
$var wire 1 Y funct7_5_ex $end
$var wire 2 Z forward_a [1:0] $end
$var wire 2 [ forward_b [1:0] $end
$var wire 32 \ alu_result_mem_fwd [31:0] $end
$var wire 32 ] forwarded_a_raw [31:0] $end
$var wire 32 ^ forwarded_b [31:0] $end
$var wire 32 _ alu_in_a [31:0] $end
$var wire 32 ` alu_in_b [31:0] $end
$var wire 4 a alu_ctrl [3:0] $end
$var wire 32 b alu_result_ex [31:0] $end
$var wire 1 c alu_zero $end
$var wire 32 d pc_plus4_ex [31:0] $end
$var wire 32 e jal_tgt [31:0] $end
$var wire 32 f jalr_tgt [31:0] $end
$var wire 1 g signed_lt $end
$var wire 1 h unsigned_lt $end
$var wire 1 i branch_taken_wire $end
$var wire 1 j opcode_ex_is_jalr $end
$var wire 1 k reg_write_mem $end
$var wire 1 l mem_read_mem $end
$var wire 1 m mem_write_mem $end
$var wire 1 n mem_to_reg_mem $end
$var wire 1 o jump_mem $end
$var wire 3 p funct3_mem [2:0] $end
$var wire 32 q alu_result_mem [31:0] $end
$var wire 32 r rs2_data_mem [31:0] $end
$var wire 32 s pc_plus4_mem [31:0] $end
$var wire 5 t rd_addr_mem [4:0] $end
$var wire 32 u read_data_mem [31:0] $end
$var wire 1 v mem_to_reg_wb $end
$var wire 1 w jump_wb $end
$var wire 32 x read_data_wb [31:0] $end
$var wire 32 y alu_result_wb [31:0] $end
$var wire 32 z pc_plus4_wb [31:0] $end
$scope module pc_reg_inst $end
$var wire 1 & clk $end
$var wire 1 ' rst $end
$var wire 1 ( stall $end
$var wire 1 ) pc_sel $end
$var wire 32 * branch_tgt [31:0] $end
$var reg 32 { pc [31:0] $end
$upscope $end
$scope module imem_inst $end
$var wire 32 + addr [31:0] $end
$var wire 32 , instr [31:0] $end
$upscope $end
$scope module if_id_reg_inst $end
$var wire 1 & clk $end
$var wire 1 ' rst $end
$var wire 1 ( stall $end
$var wire 1 - flush $end
$var wire 32 + pc_in [31:0] $end
$var wire 32 , instr_in [31:0] $end
$var reg 32 | pc_out [31:0] $end
$var reg 32 } instr_out [31:0] $end
$upscope $end
$scope module control_inst $end
$var wire 7 0 opcode [6:0] $end
$var reg 1 ~ reg_write $end
$var reg 1 !! mem_read $end
$var reg 1 "! mem_write $end
$var reg 1 #! mem_to_reg $end
$var reg 1 $! alu_src $end
$var reg 1 %! branch $end
$var reg 1 &! jump $end
$var reg 1 '! lui $end
$var reg 1 (! auipc $end
$var reg 2 )! alu_op [1:0] $end
$upscope $end
$scope module imm_gen_inst $end
$var wire 32 / instr [31:0] $end
$var reg 32 *! imm_out [31:0] $end
$var wire 7 +! opcode [6:0] $end
$upscope $end
$scope module regfile_inst $end
$var wire 1 & clk $end
$var wire 1 A we $end
$var wire 5 B wd_addr [4:0] $end
$var wire 32 C wd_data [31:0] $end
$var wire 5 1 rs1_addr [4:0] $end
$var wire 5 2 rs2_addr [4:0] $end
$var wire 32 D rs1_data [31:0] $end
$var wire 32 E rs2_data [31:0] $end
$var integer 32 ,! i [31:0] $end
$upscope $end
$scope module id_ex_reg_inst $end
$var wire 1 & clk $end
$var wire 1 ' rst $end
$var wire 1 F flush $end
$var wire 1 6 reg_write_in $end
$var wire 1 7 mem_read_in $end
$var wire 1 8 mem_write_in $end
$var wire 1 9 mem_to_reg_in $end
$var wire 1 : alu_src_in $end
$var wire 1 ; branch_in $end
$var wire 1 < jump_in $end
$var wire 1 = lui_in $end
$var wire 1 > auipc_in $end
$var wire 2 ? alu_op_in [1:0] $end
$var wire 32 . pc_in [31:0] $end
$var wire 32 D rs1_data_in [31:0] $end
$var wire 32 E rs2_data_in [31:0] $end
$var wire 32 @ imm_in [31:0] $end
$var wire 5 1 rs1_addr_in [4:0] $end
$var wire 5 2 rs2_addr_in [4:0] $end
$var wire 5 3 rd_addr_in [4:0] $end
$var wire 3 4 funct3_in [2:0] $end
$var wire 1 5 funct7_5_in $end
$var reg 1 -! reg_write_out $end
$var reg 1 .! mem_read_out $end
$var reg 1 /! mem_write_out $end
$var reg 1 0! mem_to_reg_out $end
$var reg 1 1! alu_src_out $end
$var reg 1 2! branch_out $end
$var reg 1 3! jump_out $end
$var reg 1 4! lui_out $end
$var reg 1 5! auipc_out $end
$var reg 2 6! alu_op_out [1:0] $end
$var reg 32 7! pc_out [31:0] $end
$var reg 32 8! rs1_data_out [31:0] $end
$var reg 32 9! rs2_data_out [31:0] $end
$var reg 32 :! imm_out [31:0] $end
$var reg 5 ;! rs1_addr_out [4:0] $end
$var reg 5 <! rs2_addr_out [4:0] $end
$var reg 5 =! rd_addr_out [4:0] $end
$var reg 3 >! funct3_out [2:0] $end
$var reg 1 ?! funct7_5_out $end
$upscope $end
$scope module hazard_inst $end
$var wire 1 H id_ex_mem_read $end
$var wire 5 W id_ex_rd [4:0] $end
$var wire 5 1 if_id_rs1 [4:0] $end
$var wire 5 2 if_id_rs2 [4:0] $end
$var wire 1 ( stall $end
$upscope $end
$scope module alu_control_inst $end
$var wire 2 P alu_op [1:0] $end
$var wire 3 X funct3 [2:0] $end
$var wire 1 Y funct7_5 $end
$var wire 1 N lui $end
$var reg 4 @! alu_ctrl [3:0] $end
$upscope $end
$scope module alu_inst $end
$var wire 32 _ a [31:0] $end
$var wire 32 ` b [31:0] $end
$var wire 4 a alu_ctrl [3:0] $end
$var reg 32 A! result [31:0] $end
$var wire 1 c zero $end
$upscope $end
$scope module ex_mem_reg_inst $end
$var wire 1 & clk $end
$var wire 1 ' rst $end
$var wire 1 G reg_write_in $end
$var wire 1 H mem_read_in $end
$var wire 1 I mem_write_in $end
$var wire 1 J mem_to_reg_in $end
$var wire 1 M jump_in $end
$var wire 3 X funct3_in [2:0] $end
$var wire 32 b alu_result_in [31:0] $end
$var wire 32 ^ rs2_data_in [31:0] $end
$var wire 32 d pc_plus4_in [31:0] $end
$var wire 5 W rd_addr_in [4:0] $end
$var reg 1 B! reg_write_out $end
$var reg 1 C! mem_read_out $end
$var reg 1 D! mem_write_out $end
$var reg 1 E! mem_to_reg_out $end
$var reg 1 F! jump_out $end
$var reg 3 G! funct3_out [2:0] $end
$var reg 32 H! alu_result_out [31:0] $end
$var reg 32 I! rs2_data_out [31:0] $end
$var reg 32 J! pc_plus4_out [31:0] $end
$var reg 5 K! rd_addr_out [4:0] $end
$upscope $end
$scope module forward_inst $end
$var wire 5 U id_ex_rs1 [4:0] $end
$var wire 5 V id_ex_rs2 [4:0] $end
$var wire 1 k ex_mem_reg_write $end
$var wire 5 t ex_mem_rd [4:0] $end
$var wire 1 A mem_wb_reg_write $end
$var wire 5 B mem_wb_rd [4:0] $end
$var reg 2 L! forward_a [1:0] $end
$var reg 2 M! forward_b [1:0] $end
$upscope $end
$scope module dmem_inst $end
$var wire 1 & clk $end
$var wire 1 l mem_read $end
$var wire 1 m mem_write $end
$var wire 3 p funct3 [2:0] $end
$var wire 32 q addr [31:0] $end
$var wire 32 r wd [31:0] $end
$var reg 32 N! rd [31:0] $end
$var integer 32 O! i [31:0] $end
$var wire 8 P! byte_offset [7:0] $end
$var wire 30 Q! word_addr [29:0] $end
$var wire 32 R! word_data [31:0] $end
$upscope $end
$scope module mem_wb_reg_inst $end
$var wire 1 & clk $end
$var wire 1 ' rst $end
$var wire 1 k reg_write_in $end
$var wire 1 n mem_to_reg_in $end
$var wire 1 o jump_in $end
$var wire 32 u read_data_in [31:0] $end
$var wire 32 q alu_result_in [31:0] $end
$var wire 32 s pc_plus4_in [31:0] $end
$var wire 5 t rd_addr_in [4:0] $end
$var reg 1 S! reg_write_out $end
$var reg 1 T! mem_to_reg_out $end
$var reg 1 U! jump_out $end
$var reg 32 V! read_data_out [31:0] $end
$var reg 32 W! alu_result_out [31:0] $end
$var reg 32 X! pc_plus4_out [31:0] $end
$var reg 5 Y! rd_addr_out [4:0] $end
$upscope $end
$upscope $end
$scope task CHECK $end
$var reg 5 Z! reg_idx [4:0] $end
$var reg 32 [! expected [31:0] $end
$var reg 64 \! test_name [63:0] $end
$upscope $end
$scope task RESET_CPU $end
$upscope $end
$scope task RUN $end
$var integer 32 ]! cycles [31:0] $end
$upscope $end
$upscope $end
$enddefinitions $end
#0
$dumpvars
0!
0!!
1"
0"!
b0 #
0#!
b0 $
0$!
b0 %
0%!
0&
0&!
1'
0'!
0(
0(!
0)
b0 )!
b0 *
b0 *!
b0 +
b0 +!
bx ,
b100000 ,!
0-
0-!
b0 .
0.!
b0 /
0/!
b0 0
00!
b0 1
01!
b0 2
02!
b0 3
03!
b0 4
04!
05
05!
06
b0 6!
07
b0 7!
08
b0 8!
09
b0 9!
0:
b0 :!
0;
b0 ;!
0<
b0 <!
0=
b0 =!
0>
b0 >!
b0 ?
0?!
b0 @
b0 @!
0A
b0 A!
b0 B
0B!
b0 C
0C!
b0 D
0D!
b0 E
0E!
0F
0F!
0G
b0 G!
0H
b0 H!
0I
b0 I!
0J
b0 J!
0K
b0 K!
0L
b0 L!
0M
b0 M!
0N
b0 N!
0O
b100000000 O!
b0 P
b0 P!
b0 Q
b0 Q!
b0 R
b0 R!
b0 S
0S!
b0 T
0T!
b0 U
0U!
b0 V
b0 V!
b0 W
b0 W!
b0 X
b0 X!
0Y
b0 Y!
b0 Z
b0 Z!
b0 [
b0 [!
b0 \
b0 \!
b0 ]
b0 ]!
b0 ^
b0 _
b0 `
b0 a
b0 b
1c
b100 d
b0 e
b0 f
0g
0h
1i
0j
0k
0l
0m
0n
0o
b0 p
b0 q
b0 r
b0 s
b0 t
b0 u
0v
0w
b0 x
b0 y
b0 z
b0 {
b0 |
b0 }
0~
$end
#5000
1!
1&
#10000
0!
0&
#15000
1!
1&
#20000
0!
0&
#25000
1!
0!!
0"
0"!
0#!
0$!
0%!
1&
0&!
0'
0'!
0(
0(!
b0 )!
b0 *!
b100 +
bx +!
bx /
bx 0
bx 1
bx 2
bx 3
bx 4
x5
bx D
bx E
b100 J!
b100 s
b100 {
bx }
0~
#30000
0!
0&
#35000
1!
1&
0(
0)
b1000 +
b100 .
bx 8!
bx 9!
bx ;!
bx <!
bx =!
bx >!
x?!
b0 @!
bx A!
b0 C
b0 L!
b0 M!
b0 N!
bx R
b1100100 R!
bx S
bx U
bx V
bx W
bx X
b100 X!
xY
bx ]
bx ^
bx _
bx `
bx b
xc
bx0 f
xg
xh
xi
b100 z
b1000 {
b100 |
#40000
0!
0&
#45000
1!
1&
b100 *
b1100 +
b1000 .
b100 7!
bx G!
bx H!
bx I!
bx K!
b0 L!
b0 M!
b0 N!
b0xx P!
b100 Q
bx Q!
bx R!
bx \
bx ]
bx ^
bx _
b1000 d
b100 e
bx p
bx q
bx r
bx t
b1100 {
b1000 |
#50000
0!
0&
#55000
1!
1&
b1000 *
b10000 +
b1100 .
b1000 7!
bx B
bx C
b1000 J!
b0 L!
b0 M!
b1000 Q
bx W!
bx Y!
bx ]
bx ^
bx _
b1100 d
b1000 e
b1000 s
bx y
b10000 {
b1100 |
#60000
0!
0&
#65000
1!
1&
b1100 *
b10100 +
b10000 .
b1100 7!
bx C
b1100 J!
b1100 Q
b1000 X!
bx _
b10000 d
b1100 e
b1100 s
b1000 z
b10100 {
b10000 |
#70000
0!
0&
#75000
1!
1&
b10000 *
b11000 +
b10100 .
b10000 7!
bx C
b10000 J!
b10000 Q
b1100 X!
bx _
b10100 d
b10000 e
b10000 s
b1100 z
b11000 {
b10100 |
#80000
0!
0&
#85000
1!
1&
b10100 *
b11100 +
b11000 .
b10100 7!
bx C
b10100 J!
b10100 Q
b10000 X!
bx _
b11000 d
b10100 e
b10100 s
b10000 z
b11100 {
b11000 |
#90000
0!
0&
#95000
1!
1&
b11000 *
b100000 +
b11100 .
b11000 7!
bx C
b11000 J!
b11000 Q
b10100 X!
bx _
b11100 d
b11000 e
b11000 s
b10100 z
b100000 {
b11100 |
#100000
0!
0&
#105000
1!
1&
b11100 *
b100100 +
b100000 .
b11100 7!
bx C
b11100 J!
b11100 Q
b11000 X!
bx _
b100000 d
b11100 e
b11100 s
b11000 z
b100100 {
b100000 |
#110000
0!
0&
#115000
1!
1&
b100000 *
b101000 +
b100100 .
b100000 7!
bx C
b100000 J!
b100000 Q
b11100 X!
bx _
b100100 d
b100000 e
b100000 s
b11100 z
b101000 {
b100100 |
#120000
0!
0&
#125000
1!
1&
b100100 *
b101100 +
b101000 .
b100100 7!
bx C
b100100 J!
b100100 Q
b100000 X!
bx _
b101000 d
b100100 e
b100100 s
b100000 z
b101100 {
b101000 |
#130000
0!
0&
#135000
1!
1&
b101000 *
b110000 +
b101100 .
b101000 7!
bx C
b101000 J!
b101000 Q
b100100 X!
bx _
b101100 d
b101000 e
b101000 s
b100100 z
b110000 {
b101100 |
#140000
0!
0&
#145000
1!
1&
b101100 *
b110100 +
b110000 .
b101100 7!
bx C
b101100 J!
b101100 Q
b101000 X!
bx _
b110000 d
b101100 e
b101100 s
b101000 z
b110100 {
b110000 |
#150000
0!
0&
#155000
1!
1&
b110000 *
b111000 +
b110100 .
b110000 7!
bx C
b110000 J!
b110000 Q
b101100 X!
bx _
b110100 d
b110000 e
b110000 s
b101100 z
b111000 {
b110100 |
#160000
0!
0&
#165000
1!
1&
b110100 *
b111100 +
b111000 .
b110100 7!
bx C
b110100 J!
b110100 Q
b110000 X!
bx _
b111000 d
b110100 e
b110100 s
b110000 z
b111100 {
b111000 |
#170000
0!
0&
#175000
1!
1&
b111000 *
b1000000 +
b111100 .
b111000 7!
bx C
b111000 J!
b111000 Q
b110100 X!
bx _
b111100 d
b111000 e
b111000 s
b110100 z
b1000000 {
b111100 |
#180000
0!
0&
#185000
1!
1&
b111100 *
b1000100 +
b1000000 .
b111100 7!
bx C
b111100 J!
b111100 Q
b111000 X!
bx _
b1000000 d
b111100 e
b111100 s
b111000 z
b1000100 {
b1000000 |
#190000
0!
0&
#195000
1!
1&
b1000000 *
b1001000 +
b1000100 .
b1000000 7!
bx C
b1000000 J!
b1000000 Q
b111100 X!
bx _
b1000100 d
b1000000 e
b1000000 s
b111100 z
b1001000 {
b1000100 |
#200000
0!
0&
#205000
1!
1&
b1000100 *
b1001100 +
b1001000 .
b1000100 7!
bx C
b1000100 J!
b1000100 Q
b1000000 X!
bx _
b1001000 d
b1000100 e
b1000100 s
b1000000 z
b1001100 {
b1001000 |
#210000
0!
0&
#215000
1!
1&
b1001000 *
b1010000 +
b1001100 .
b1001000 7!
bx C
b1001000 J!
b1001000 Q
b1000100 X!
bx _
b1001100 d
b1001000 e
b1001000 s
b1000100 z
b1010000 {
b1001100 |
#220000
0!
0&
#225000
1!
1&
b1001100 *
b1010100 +
b1010000 .
b1001100 7!
bx C
b1001100 J!
b1001100 Q
b1001000 X!
bx _
b1010000 d
b1001100 e
b1001100 s
b1001000 z
b1010100 {
b1010000 |
#230000
0!
0&
#235000
1!
1&
b1010000 *
b1011000 +
b1010100 .
b1010000 7!
bx C
b1010000 J!
b1010000 Q
b1001100 X!
bx _
b1010100 d
b1010000 e
b1010000 s
b1001100 z
b1011000 {
b1010100 |
#240000
0!
0&
#245000
1!
1&
b1010100 *
b1011100 +
b1011000 .
b1010100 7!
bx C
b1010100 J!
b1010100 Q
b1010000 X!
bx _
b1011000 d
b1010100 e
b1010100 s
b1010000 z
b1011100 {
b1011000 |
#250000
0!
0&
#255000
1!
1&
b1011000 *
b1100000 +
b1011100 .
b1011000 7!
bx C
b1011000 J!
b1011000 Q
b1010100 X!
bx _
b1011100 d
b1011000 e
b1011000 s
b1010100 z
b1100000 {
b1011100 |
#260000
0!
0&
#265000
1!
1&
b1011100 *
b1100100 +
b1100000 .
b1011100 7!
bx C
b1011100 J!
b1011100 Q
b1011000 X!
bx _
b1100000 d
b1011100 e
b1011100 s
b1011000 z
b1100100 {
b1100000 |
#270000
0!
0&
#275000
1!
1&
b1100000 *
b1101000 +
b1100100 .
b1100000 7!
bx C
b1100000 J!
b1100000 Q
b1011100 X!
bx _
b1100100 d
b1100000 e
b1100000 s
b1011100 z
b1101000 {
b1100100 |
#280000
0!
0&
#285000
1!
1&
b1100100 *
b1101100 +
b1101000 .
b1100100 7!
bx C
b1100100 J!
b1100100 Q
b1100000 X!
bx _
b1101000 d
b1100100 e
b1100100 s
b1100000 z
b1101100 {
b1101000 |
#290000
0!
0&
#295000
1!
1&
b1101000 *
b1110000 +
b1101100 .
b1101000 7!
bx C
b1101000 J!
b1101000 Q
b1100100 X!
bx _
b1101100 d
b1101000 e
b1101000 s
b1100100 z
b1110000 {
b1101100 |
#300000
0!
0&
#305000
1!
1&
b1101100 *
b1110100 +
b1110000 .
b1101100 7!
bx C
b1101100 J!
b1101100 Q
b1101000 X!
bx _
b1110000 d
b1101100 e
b1101100 s
b1101000 z
b1110100 {
b1110000 |
#310000
0!
0&
#315000
1!
1&
b1110000 *
b1111000 +
b1110100 .
b1110000 7!
bx C
b1110000 J!
b1110000 Q
b1101100 X!
bx _
b1110100 d
b1110000 e
b1110000 s
b1101100 z
b1111000 {
b1110100 |
#320000
0!
0&
#325000
1!
1&
b1110100 *
b1111100 +
b1111000 .
b1110100 7!
bx C
b1110100 J!
b1110100 Q
b1110000 X!
bx _
b1111000 d
b1110100 e
b1110100 s
b1110000 z
b1111100 {
b1111000 |
#330000
0!
0&
#335000
1!
1&
b1111000 *
b10000000 +
b1111100 .
b1111000 7!
bx C
b1111000 J!
b1111000 Q
b1110100 X!
bx _
b1111100 d
b1111000 e
b1111000 s
b1110100 z
b10000000 {
b1111100 |
#340000
0!
0&
#345000
1!
1&
b1111100 *
b10000100 +
b10000000 .
b1111100 7!
bx C
b1111100 J!
b1111100 Q
b1111000 X!
bx _
b10000000 d
b1111100 e
b1111100 s
b1111000 z
b10000100 {
b10000000 |
#350000
0!
0&
#355000
1!
1&
b10000000 *
b10001000 +
b10000100 .
b10000000 7!
bx C
b10000000 J!
b10000000 Q
b1111100 X!
bx _
b10000100 d
b10000000 e
b10000000 s
b1111100 z
b10001000 {
b10000100 |
#360000
0!
0&
#365000
1!
1&
b10000100 *
b10001100 +
b10001000 .
b10000100 7!
bx C
b10000100 J!
b10000100 Q
b10000000 X!
bx _
b10001000 d
b10000100 e
b10000100 s
b10000000 z
b10001100 {
b10001000 |
#370000
0!
0&
#375000
1!
1&
b10001000 *
b10010000 +
b10001100 .
b10001000 7!
bx C
b10001000 J!
b10001000 Q
b10000100 X!
bx _
b10001100 d
b10001000 e
b10001000 s
b10000100 z
b10010000 {
b10001100 |
#380000
0!
0&
#385000
1!
1&
b10001100 *
b10010100 +
b10010000 .
b10001100 7!
bx C
b10001100 J!
b10001100 Q
b10001000 X!
bx _
b10010000 d
b10001100 e
b10001100 s
b10001000 z
b10010100 {
b10010000 |
#390000
0!
0&
#395000
1!
1&
b10010000 *
b10011000 +
b10010100 .
b10010000 7!
bx C
b10010000 J!
b10010000 Q
b10001100 X!
bx _
b10010100 d
b10010000 e
b10010000 s
b10001100 z
b10011000 {
b10010100 |
#400000
0!
0&
#405000
1!
1&
b10010100 *
b10011100 +
b10011000 .
b10010100 7!
bx C
b10010100 J!
b10010100 Q
b10010000 X!
bx _
b10011000 d
b10010100 e
b10010100 s
b10010000 z
b10011100 {
b10011000 |
#410000
0!
0&
#415000
1!
1&
b10011000 *
b10100000 +
b10011100 .
b10011000 7!
bx C
b10011000 J!
b10011000 Q
b10010100 X!
bx _
b10011100 d
b10011000 e
b10011000 s
b10010100 z
b10100000 {
b10011100 |
#420000
0!
0&
#425000
1!
1&
b10011100 *
b10100100 +
b10100000 .
b10011100 7!
bx C
b10011100 J!
b10011100 Q
b10011000 X!
bx _
b10100000 d
b10011100 e
b10011100 s
b10011000 z
b10100100 {
b10100000 |
#430000
0!
0&
#435000
1!
1&
b10100000 *
b10101000 +
b10100100 .
b10100000 7!
bx C
b10100000 J!
b10100000 Q
b10011100 X!
bx _
b10100100 d
b10100000 e
b10100000 s
b10011100 z
b10101000 {
b10100100 |
#440000
0!
0&
#445000
1!
1&
b10100100 *
b10101100 +
b10101000 .
b10100100 7!
bx C
b10100100 J!
b10100100 Q
b10100000 X!
bx _
b10101000 d
b10100100 e
b10100100 s
b10100000 z
b10101100 {
b10101000 |
#450000
0!
0&
#455000
1!
1&
b10101000 *
b10110000 +
b10101100 .
b10101000 7!
bx C
b10101000 J!
b10101000 Q
b10100100 X!
bx _
b10101100 d
b10101000 e
b10101000 s
b10100100 z
b10110000 {
b10101100 |
#460000
0!
0&
#465000
1!
1&
b10101100 *
b10110100 +
b10110000 .
b10101100 7!
bx C
b10101100 J!
b10101100 Q
b10101000 X!
bx _
b10110000 d
b10101100 e
b10101100 s
b10101000 z
b10110100 {
b10110000 |
#470000
0!
0&
#475000
1!
1&
b10110000 *
b10111000 +
b10110100 .
b10110000 7!
bx C
b10110000 J!
b10110000 Q
b10101100 X!
bx _
b10110100 d
b10110000 e
b10110000 s
b10101100 z
b10111000 {
b10110100 |
#480000
0!
0&
#485000
1!
1&
b10110100 *
b10111100 +
b10111000 .
b10110100 7!
bx C
b10110100 J!
b10110100 Q
b10110000 X!
bx _
b10111000 d
b10110100 e
b10110100 s
b10110000 z
b10111100 {
b10111000 |
#490000
0!
0&
#495000
1!
1&
b10111000 *
b11000000 +
b10111100 .
b10111000 7!
bx C
b10111000 J!
b10111000 Q
b10110100 X!
bx _
b10111100 d
b10111000 e
b10111000 s
b10110100 z
b11000000 {
b10111100 |
#500000
0!
0&
#505000
1!
1&
b10111100 *
b11000100 +
b11000000 .
b10111100 7!
bx C
b10111100 J!
b10111100 Q
b10111000 X!
bx _
b11000000 d
b10111100 e
b10111100 s
b10111000 z
b11000100 {
b11000000 |
#510000
0!
0&
#515000
1!
1&
b11000000 *
b11001000 +
b11000100 .
b11000000 7!
bx C
b11000000 J!
b11000000 Q
b10111100 X!
bx _
b11000100 d
b11000000 e
b11000000 s
b10111100 z
b11001000 {
b11000100 |
#520000
0!
0&
#525000
1!
1&
b11000100 *
b11001100 +
b11001000 .
b11000100 7!
bx C
b11000100 J!
b11000100 Q
b11000000 X!
bx _
b11001000 d
b11000100 e
b11000100 s
b11000000 z
b11001100 {
b11001000 |
#530000
0!
0&
#535000
1!
1&
b11001000 *
b11010000 +
b11001100 .
b11001000 7!
bx C
b11001000 J!
b11001000 Q
b11000100 X!
bx _
b11001100 d
b11001000 e
b11001000 s
b11000100 z
b11010000 {
b11001100 |
#540000
0!
0&
#545000
1!
1&
b11001100 *
b11010100 +
b11010000 .
b11001100 7!
bx C
b11001100 J!
b11001100 Q
b11001000 X!
bx _
b11010000 d
b11001100 e
b11001100 s
b11001000 z
b11010100 {
b11010000 |
#550000
0!
0&
#555000
1!
1&
b11010000 *
b11011000 +
b11010100 .
b11010000 7!
bx C
b11010000 J!
b11010000 Q
b11001100 X!
bx _
b11010100 d
b11010000 e
b11010000 s
b11001100 z
b11011000 {
b11010100 |
#560000
0!
0&
#565000
1!
1&
b11010100 *
b11011100 +
b11011000 .
b11010100 7!
bx C
b11010100 J!
b11010100 Q
b11010000 X!
bx _
b11011000 d
b11010100 e
b11010100 s
b11010000 z
b11011100 {
b11011000 |
#570000
0!
0&
#575000
1!
1&
b11011000 *
b11100000 +
b11011100 .
b11011000 7!
bx C
b11011000 J!
b11011000 Q
b11010100 X!
bx _
b11011100 d
b11011000 e
b11011000 s
b11010100 z
b11100000 {
b11011100 |
#580000
0!
0&
#585000
1!
1&
b11011100 *
b11100100 +
b11100000 .
b11011100 7!
bx C
b11011100 J!
b11011100 Q
b11011000 X!
bx _
b11100000 d
b11011100 e
b11011100 s
b11011000 z
b11100100 {
b11100000 |
#590000
0!
0&
#595000
1!
1&
b11100000 *
b11101000 +
b11100100 .
b11100000 7!
bx C
b11100000 J!
b11100000 Q
b11011100 X!
bx _
b11100100 d
b11100000 e
b11100000 s
b11011100 z
b11101000 {
b11100100 |
#600000
0!
0&
#605000
1!
1&
b11100100 *
b11101100 +
b11101000 .
b11100100 7!
bx C
b11100100 J!
b11100100 Q
b11100000 X!
bx _
b11101000 d
b11100100 e
b11100100 s
b11100000 z
b11101100 {
b11101000 |
#610000
0!
0&
#615000
1!
1&
b11101000 *
b11110000 +
b11101100 .
b11101000 7!
bx C
b11101000 J!
b11101000 Q
b11100100 X!
bx _
b11101100 d
b11101000 e
b11101000 s
b11100100 z
b11110000 {
b11101100 |
#620000
0!
0&
#625000
1!
1&
b11101100 *
b11110100 +
b11110000 .
b11101100 7!
bx C
b11101100 J!
b11101100 Q
b11101000 X!
bx _
b11110000 d
b11101100 e
b11101100 s
b11101000 z
b11110100 {
b11110000 |
#630000
0!
0&
#635000
1!
0!!
1"
0"!
b10 #
0#!
b1100 $
0$!
b1110 %
0%!
1&
0&!
1'
0'!
0(
0(!
0)
b0 )!
b0 *
b0 *!
b0 +
b0 +!
b0 .
b0 /
b0 0
b0 1
b0 2
b0 3
b0 4
05
b0 7!
b0 8!
b0 9!
b0 ;!
b0 <!
b0 =!
b0 >!
0?!
b0 @!
b0 A!
b0 B
b0 C
b0 D
b0 E
b0 G!
b0 H!
b0 I!
b0 J!
b0 K!
b0 L!
b0 M!
b0 N!
b0 P!
b0 Q
b0 Q!
b0 R
b1100100 R!
b0 S
b0 U
b0 V
b0 W
b0 W!
b0 X
b0 X!
0Y
b0 Y!
b0 \
b0 ]
b0 ^
b0 _
b0 `
b0 b
1c
b100 d
b0 e
b0 f
0g
0h
1i
b0 p
b0 q
b0 r
b0 s
b0 t
b0 y
b0 z
b0 {
b0 |
b0 }
0~
#640000
0!
0&
#645000
1!
1&
#650000
0!
0&
#655000
1!
1&
#660000
0!
0&
#665000
1!
0!!
0"
0"!
0#!
0$!
0%!
1&
0&!
0'
0'!
0(
0(!
b0 )!
b0 *!
b100 +
bx +!
bx /
bx 0
bx 1
bx 2
bx 3
bx 4
x5
bx D
bx E
b100 J!
b100 s
b100 {
bx }
0~
#670000
0!
0&
#675000
1!
1&
0(
0)
b1000 +
b100 .
bx 8!
bx 9!
bx ;!
bx <!
bx =!
bx >!
x?!
b0 @!
bx A!
b0 C
b0 L!
b0 M!
b0 N!
bx R
b101010 R!
bx S
bx U
bx V
bx W
bx X
b100 X!
xY
bx ]
bx ^
bx _
bx `
bx b
xc
bx0 f
xg
xh
xi
b100 z
b1000 {
b100 |
#680000
0!
0&
#685000
1!
1&
b100 *
b1100 +
b1000 .
b100 7!
bx G!
bx H!
bx I!
bx K!
b0 L!
b0 M!
b0 N!
b0xx P!
b100 Q
bx Q!
bx R!
bx \
bx ]
bx ^
bx _
b1000 d
b100 e
bx p
bx q
bx r
bx t
b1100 {
b1000 |
#690000
0!
0&
#695000
1!
1&
b1000 *
b10000 +
b1100 .
b1000 7!
bx B
bx C
b1000 J!
b0 L!
b0 M!
b1000 Q
bx W!
bx Y!
bx ]
bx ^
bx _
b1100 d
b1000 e
b1000 s
bx y
b10000 {
b1100 |
#700000
0!
0&
#705000
1!
1&
b1100 *
b10100 +
b10000 .
b1100 7!
bx C
b1100 J!
b1100 Q
b1000 X!
bx _
b10000 d
b1100 e
b1100 s
b1000 z
b10100 {
b10000 |
#710000
0!
0&
#715000
1!
1&
b10000 *
b11000 +
b10100 .
b10000 7!
bx C
b10000 J!
b10000 Q
b1100 X!
bx _
b10100 d
b10000 e
b10000 s
b1100 z
b11000 {
b10100 |
#720000
0!
0&
