sim_logs/waves.vcd
$date
   Wed Apr  8 22:17:52 2026
$end
$version
  2022.2
$end
$timescale
  1ps
$end
$scope module tb_top $end
$var reg 1 ! clk $end
$var reg 1 " rst $end
$var integer 32 # pass_count [31:0] $end
$var integer 32 $ fail_count [31:0] $end
$var integer 32 % test_num [31:0] $end
$scope module uut $end
$var wire 1 & clk $end
$var wire 1 ' rst $end
$var wire 1 ( mem_read_mem $end
$var reg 1 ) bram_done $end
$var wire 1 * stall_bram $end
$var wire 1 + stall_loaduse $end
$var wire 1 , pc_sel $end
$var wire 1 - stall $end
$var wire 1 . flush_id_ex $end
$var wire 32 / jump_tgt [31:0] $end
$var wire 32 0 pc_if [31:0] $end
$var wire 32 1 instr_if [31:0] $end
$var wire 1 2 flush_if_id $end
$var wire 32 3 pc_id [31:0] $end
$var wire 32 4 instr_id [31:0] $end
$var wire 7 5 opcode [6:0] $end
$var wire 5 6 rs1_addr_id [4:0] $end
$var wire 5 7 rs2_addr_id [4:0] $end
$var wire 5 8 rd_addr_id [4:0] $end
$var wire 3 9 funct3_id [2:0] $end
$var wire 1 : funct7_5_id $end
$var wire 1 ; reg_write_id $end
$var wire 1 < mem_read_id $end
$var wire 1 = mem_write_id $end
$var wire 1 > mem_to_reg_id $end
$var wire 1 ? alu_src_id $end
$var wire 1 @ branch_id $end
$var wire 1 A jump_id $end
$var wire 1 B lui_id $end
$var wire 1 C auipc_id $end
$var wire 2 D alu_op_id [1:0] $end
$var wire 32 E imm_id [31:0] $end
$var wire 1 F reg_write_wb $end
$var wire 5 G rd_addr_wb [4:0] $end
$var wire 32 H wd_data_wb [31:0] $end
$var wire 32 I rs1_data_id [31:0] $end
$var wire 32 J rs2_data_id [31:0] $end
$var wire 1 K reg_write_ex $end
$var wire 1 L mem_read_ex $end
$var wire 1 M mem_write_ex $end
$var wire 1 N mem_to_reg_ex $end
$var wire 1 O alu_src_ex $end
$var wire 1 P branch_ex $end
$var wire 1 Q jump_ex $end
$var wire 1 R lui_ex $end
$var wire 1 S auipc_ex $end
$var wire 2 T alu_op_ex [1:0] $end
$var wire 32 U pc_ex [31:0] $end
$var wire 32 V rs1_data_ex [31:0] $end
$var wire 32 W rs2_data_ex [31:0] $end
$var wire 32 X imm_ex [31:0] $end
$var wire 5 Y rs1_addr_ex [4:0] $end
$var wire 5 Z rs2_addr_ex [4:0] $end
$var wire 5 [ rd_addr_ex [4:0] $end
$var wire 3 \ funct3_ex [2:0] $end
$var wire 1 ] funct7_5_ex $end
$var wire 2 ^ forward_a [1:0] $end
$var wire 2 _ forward_b [1:0] $end
$var wire 32 ` alu_result_mem_fwd [31:0] $end
$var wire 32 a forwarded_a_raw [31:0] $end
$var wire 32 b forwarded_b [31:0] $end
$var wire 32 c alu_in_a [31:0] $end
$var wire 32 d alu_in_b [31:0] $end
$var wire 4 e alu_ctrl [3:0] $end
$var wire 32 f alu_result_ex [31:0] $end
$var wire 1 g alu_zero $end
$var wire 32 h pc_plus4_ex [31:0] $end
$var wire 32 i jal_tgt [31:0] $end
$var wire 32 j jalr_tgt [31:0] $end
$var wire 1 k signed_lt $end
$var wire 1 l unsigned_lt $end
$var wire 1 m branch_taken_wire $end
$var wire 1 n opcode_ex_is_jalr $end
$var wire 1 o reg_write_mem $end
$var wire 1 p mem_write_mem $end
$var wire 1 q mem_to_reg_mem $end
$var wire 1 r jump_mem $end
$var wire 3 s funct3_mem [2:0] $end
$var wire 32 t alu_result_mem [31:0] $end
$var wire 32 u rs2_data_mem [31:0] $end
$var wire 32 v pc_plus4_mem [31:0] $end
$var wire 5 w rd_addr_mem [4:0] $end
$var wire 32 x read_data_mem [31:0] $end
$var wire 1 y mem_to_reg_wb $end
$var wire 1 z jump_wb $end
$var wire 32 { read_data_wb [31:0] $end
$var wire 32 | alu_result_wb [31:0] $end
$var wire 32 } pc_plus4_wb [31:0] $end
$scope module pc_reg_inst $end
$var wire 1 & clk $end
$var wire 1 ' rst $end
$var wire 1 - stall $end
$var wire 1 , pc_sel $end
$var wire 32 / branch_tgt [31:0] $end
$var reg 32 ~ pc [31:0] $end
$upscope $end
$scope module imem_inst $end
$var wire 32 0 addr [31:0] $end
$var wire 32 1 instr [31:0] $end
$upscope $end
$scope module if_id_reg_inst $end
$var wire 1 & clk $end
$var wire 1 ' rst $end
$var wire 1 - stall $end
$var wire 1 2 flush $end
$var wire 32 0 pc_in [31:0] $end
$var wire 32 1 instr_in [31:0] $end
$var reg 32 !! pc_out [31:0] $end
$var reg 32 "! instr_out [31:0] $end
$upscope $end
$scope module control_inst $end
$var wire 7 5 opcode [6:0] $end
$var reg 1 #! reg_write $end
$var reg 1 $! mem_read $end
$var reg 1 %! mem_write $end
$var reg 1 &! mem_to_reg $end
$var reg 1 '! alu_src $end
$var reg 1 (! branch $end
$var reg 1 )! jump $end
$var reg 1 *! lui $end
$var reg 1 +! auipc $end
$var reg 2 ,! alu_op [1:0] $end
$upscope $end
$scope module imm_gen_inst $end
$var wire 32 4 instr [31:0] $end
$var reg 32 -! imm_out [31:0] $end
$var wire 7 .! opcode [6:0] $end
$upscope $end
$scope module regfile_inst $end
$var wire 1 & clk $end
$var wire 1 F we $end
$var wire 5 G wd_addr [4:0] $end
$var wire 32 H wd_data [31:0] $end
$var wire 5 6 rs1_addr [4:0] $end
$var wire 5 7 rs2_addr [4:0] $end
$var wire 32 I rs1_data [31:0] $end
$var wire 32 J rs2_data [31:0] $end
$var integer 32 /! i [31:0] $end
$upscope $end
$scope module id_ex_reg_inst $end
$var wire 1 & clk $end
$var wire 1 ' rst $end
$var wire 1 . flush $end
$var wire 1 * stall $end
$var wire 1 ; reg_write_in $end
$var wire 1 < mem_read_in $end
$var wire 1 = mem_write_in $end
$var wire 1 > mem_to_reg_in $end
$var wire 1 ? alu_src_in $end
$var wire 1 @ branch_in $end
$var wire 1 A jump_in $end
$var wire 1 B lui_in $end
$var wire 1 C auipc_in $end
$var wire 2 D alu_op_in [1:0] $end
$var wire 32 3 pc_in [31:0] $end
$var wire 32 I rs1_data_in [31:0] $end
$var wire 32 J rs2_data_in [31:0] $end
$var wire 32 E imm_in [31:0] $end
$var wire 5 6 rs1_addr_in [4:0] $end
$var wire 5 7 rs2_addr_in [4:0] $end
$var wire 5 8 rd_addr_in [4:0] $end
$var wire 3 9 funct3_in [2:0] $end
$var wire 1 : funct7_5_in $end
$var reg 1 0! reg_write_out $end
$var reg 1 1! mem_read_out $end
$var reg 1 2! mem_write_out $end
$var reg 1 3! mem_to_reg_out $end
$var reg 1 4! alu_src_out $end
$var reg 1 5! branch_out $end
$var reg 1 6! jump_out $end
$var reg 1 7! lui_out $end
$var reg 1 8! auipc_out $end
$var reg 2 9! alu_op_out [1:0] $end
$var reg 32 :! pc_out [31:0] $end
$var reg 32 ;! rs1_data_out [31:0] $end
$var reg 32 <! rs2_data_out [31:0] $end
$var reg 32 =! imm_out [31:0] $end
$var reg 5 >! rs1_addr_out [4:0] $end
$var reg 5 ?! rs2_addr_out [4:0] $end
$var reg 5 @! rd_addr_out [4:0] $end
$var reg 3 A! funct3_out [2:0] $end
$var reg 1 B! funct7_5_out $end
$upscope $end
$scope module alu_control_inst $end
$var wire 2 T alu_op [1:0] $end
$var wire 3 \ funct3 [2:0] $end
$var wire 1 ] funct7_5 $end
$var wire 1 R lui $end
$var reg 4 C! alu_ctrl [3:0] $end
$upscope $end
$scope module alu_inst $end
$var wire 32 c a [31:0] $end
$var wire 32 d b [31:0] $end
$var wire 4 e alu_ctrl [3:0] $end
$var reg 32 D! result [31:0] $end
$var wire 1 g zero $end
$upscope $end
$scope module ex_mem_reg_inst $end
$var wire 1 & clk $end
$var wire 1 ' rst $end
$var wire 1 * stall $end
$var wire 1 K reg_write_in $end
$var wire 1 L mem_read_in $end
$var wire 1 M mem_write_in $end
$var wire 1 N mem_to_reg_in $end
$var wire 1 Q jump_in $end
$var wire 3 \ funct3_in [2:0] $end
$var wire 32 f alu_result_in [31:0] $end
$var wire 32 b rs2_data_in [31:0] $end
$var wire 32 h pc_plus4_in [31:0] $end
$var wire 5 [ rd_addr_in [4:0] $end
$var reg 1 E! reg_write_out $end
$var reg 1 F! mem_read_out $end
$var reg 1 G! mem_write_out $end
$var reg 1 H! mem_to_reg_out $end
$var reg 1 I! jump_out $end
$var reg 3 J! funct3_out [2:0] $end
$var reg 32 K! alu_result_out [31:0] $end
$var reg 32 L! rs2_data_out [31:0] $end
$var reg 32 M! pc_plus4_out [31:0] $end
$var reg 5 N! rd_addr_out [4:0] $end
$upscope $end
$scope module dmem_inst $end
$var wire 1 & clk $end
$var wire 1 ( mem_read $end
$var wire 1 p mem_write $end
$var wire 3 s funct3 [2:0] $end
$var wire 32 t addr [31:0] $end
$var wire 32 u wd [31:0] $end
$var reg 32 O! rd [31:0] $end
$var integer 32 P! i [31:0] $end
$var wire 2 Q! byte_offset [1:0] $end
$var wire 10 R! word_addr [9:0] $end
$var reg 3 S! funct3_r [2:0] $end
$var reg 2 T! byte_offset_r [1:0] $end
$var reg 1 U! mem_read_r $end
$var reg 32 V! word_data_r [31:0] $end
$upscope $end
$scope module mem_wb_reg_inst $end
$var wire 1 & clk $end
$var wire 1 ' rst $end
$var wire 1 * flush $end
$var wire 1 o reg_write_in $end
$var wire 1 q mem_to_reg_in $end
$var wire 1 r jump_in $end
$var wire 32 x read_data_in [31:0] $end
$var wire 32 t alu_result_in [31:0] $end
$var wire 32 v pc_plus4_in [31:0] $end
$var wire 5 w rd_addr_in [4:0] $end
$var reg 1 W! reg_write_out $end
$var reg 1 X! mem_to_reg_out $end
$var reg 1 Y! jump_out $end
$var reg 32 Z! read_data_out [31:0] $end
$var reg 32 [! alu_result_out [31:0] $end
$var reg 32 \! pc_plus4_out [31:0] $end
$var reg 5 ]! rd_addr_out [4:0] $end
$upscope $end
$scope module hazard_inst $end
$var wire 1 L id_ex_mem_read $end
$var wire 5 [ id_ex_rd [4:0] $end
$var wire 5 6 if_id_rs1 [4:0] $end
$var wire 5 7 if_id_rs2 [4:0] $end
$var wire 1 + stall $end
$upscope $end
$scope module forward_inst $end
$var wire 5 Y id_ex_rs1 [4:0] $end
$var wire 5 Z id_ex_rs2 [4:0] $end
$var wire 1 o ex_mem_reg_write $end
$var wire 5 w ex_mem_rd [4:0] $end
$var wire 1 F mem_wb_reg_write $end
$var wire 5 G mem_wb_rd [4:0] $end
$var reg 2 ^! forward_a [1:0] $end
$var reg 2 _! forward_b [1:0] $end
$upscope $end
$upscope $end
$scope task CHECK $end
$upscope $end
$scope task RESET_CPU $end
$upscope $end
$scope task RUN $end
$upscope $end
$upscope $end
$enddefinitions $end
#0
$dumpvars
0!
b0 !!
1"
b0 "!
b0 #
0#!
b0 $
0$!
b0 %
0%!
0&
0&!
1'
0'!
0(
0(!
0)
0)!
0*
0*!
0+
0+!
0,
b0 ,!
0-
b0 -!
0.
b0 .!
b0 /
b100000 /!
b0 0
00!
b10100000000000010010011 1
01!
02
02!
b0 3
03!
b0 4
04!
b0 5
05!
b0 6
06!
b0 7
07!
b0 8
08!
b0 9
b0 9!
0:
b0 :!
0;
b0 ;!
0<
b0 <!
0=
b0 =!
0>
b0 >!
0?
b0 ?!
0@
b0 @!
0A
b0 A!
0B
0B!
0C
b0 C!
b0 D
b0 D!
b0 E
0E!
0F
0F!
b0 G
0G!
b0 H
0H!
b0 I
0I!
b0 J
b0 J!
0K
b0 K!
0L
b0 L!
0M
b0 M!
0N
b0 N!
0O
bx O!
0P
b10000000000 P!
0Q
b0 Q!
0R
b0 R!
0S
bx S!
b0 T
bx T!
b0 U
xU!
b0 V
bx V!
b0 W
0W!
b0 X
0X!
b0 Y
0Y!
b0 Z
b0 Z!
b0 [
b0 [!
b0 \
b0 \!
0]
b0 ]!
b0 ^
b0 ^!
b0 _
b0 _!
b0 `
b0 a
b0 b
b0 c
b0 d
b0 e
b0 f
1g
b100 h
b0 i
b0 j
0k
0l
1m
0n
0o
0p
0q
0r
b0 s
b0 t
b0 u
b0 v
b0 w
bx x
0y
0z
b0 {
b0 |
b0 }
b0 ~
$end
#5000
1!
1&
b0 O!
b0 S!
b0 T!
0U!
b0 x
#10000
0!
0&
#15000
1!
1&
#20000
0!
0&
#25000
1!
0"
b10100000000000010010011 "!
1#!
0$!
0%!
1&
0&!
0'
1'!
0(!
0)!
0*!
0+
0+!
b11 ,!
b101 -!
b10011 .!
b100 0
b1100000000000100010011 1
b10100000000000010010011 4
b10011 5
b101 7
b1 8
1;
1?
b11 D
b101 E
b100 M!
b100 v
b100 ~
#30000
0!
0&
#35000
1!
b100 !!
b1100000000000100010011 "!
1&
0+
0,
b11 -!
b101 /
b1000 0
10!
b1000001000000110110011 1
b100 3
b1100000000000100010011 4
14!
b11 7
b10 8
b11 9!
b101 =!
b101 ?!
b1 @!
b0 C!
b101 D!
b11 E
b0 H
1K
1O
b11 T
b101 X
b101 Z
b1 [
b100 \!
b0 ^!
b0 _!
b101 d
b101 f
0g
b101 i
b100 j
0m
0n
b100 }
b1000 ~
#40000
0!
0&
#45000
1!
b1000 !!
b1000001000000110110011 "!
1#!
0$!
0%!
1&
0&!
0'!
0(!
0)!
0*!
0+
0+!
b10 ,!
b0 -!
b110011 .!
b111 /
b1100 0
b1000000001000001000001000110011 1
b1000 3
b1000001000000110110011 4
b110011 5
b1 6
b10 7
b11 8
b100 :!
b11 =!
0?
b11 ?!
b10 @!
b10 D
b11 D!
b0 E
1E!
b101 K!
b1 N!
b1 Q!
b1 R!
b100 U
b11 X
b11 Z
b10 [
b0 ^!
b0 _!
b101 `
b0 a
b0 b
b0 c
b11 d
b11 f
0g
b1000 h
b111 i
b10 j
1o
b101 t
b1 w
b1100 ~
#50000
0!
0&
#55000
1!
b1100 !!
b1000000001000001000001000110011 "!
1&
0+
0,
b0 -!
b1000 /
b10000 0
b1000001111001010110011 1
b1100 3
b1000000001000001000001000110011 4
04!
b100 8
b10 9!
1:
b1000 :!
b0 =!
b1 >!
b10 ?!
b11 @!
b0 C!
b1000 D!
1F
b1 G
b101 H
b101 I
b11 K!
b1000 M!
b10 N!
0O
b0 O!
b11 Q!
b0 R!
b10 T
b1 T!
b1000 U
1W!
b0 X
b1 Y
b10 Z
b11 [
b101 [!
b1 ]!
b1 ^
b1 ^!
b10 _
b10 _!
b11 `
b101 a
b11 b
b101 c
b11 d
b1000 f
0g
b1100 h
b1000 i
b1000 j
0k
0l
0m
0n
b11 t
b1000 v
b10 w
b101 |
b10000 ~
#60000
0!
0&
#65000
1!
b10000 !!
b1000001111001010110011 "!
1&
0+
b0 -!
b1100 /
b10100 0
b1000001110001100110011 1
b10000 3
b1000001111001010110011 4
b101 8
b111 9
0:
b1100 :!
b101 ;!
b100 @!
1B!
b1 C!
b10 D!
b10 G
b11 H
b11 J
b1000 K!
b11 L!
b1100 M!
b11 N!
b0 O!
b0 Q!
b10 R!
b11 T!
b1100 U
b101 V
b100 [
b11 [!
b1000 \!
1]
b10 ]!
b0 ^
b0 ^!
b1 _
b1 _!
b1000 `
b101 a
b11 b
b101 c
b11 d
b1 e
b10 f
0g
b10000 h
b1100 i
b10 j
0k
0l
0m
b1000 t
b11 u
b1100 v
b11 w
b11 |
b1000 }
b10100 ~
#70000
0!
0&
#75000
1!
b10100 !!
b1000001110001100110011 "!
1&
0+
0,
b0 -!
b10000 /
b11000 0
b1000001100001110110011 1
b10100 3
b1000001110001100110011 4
b110 8
b110 9
b10000 :!
b11 <!
b101 @!
b111 A!
0B!
b10 C!
b1 D!
b11 G
b1000 H
b10 K!
b10000 M!
b100 N!
b0 O!
b10 Q!
b0 R!
b0 T!
b10000 U
b11 W
b101 [
b1000 [!
b111 \
b1100 \!
0]
b11 ]!
b0 ^!
b0 _
b0 _!
b10 `
b101 a
b11 b
b101 c
b11 d
b10 e
b1 f
0g
b10100 h
b10000 i
b0 j
0k
0l
1m
b10 t
b10000 v
b100 w
b1000 |
b1100 }
b11000 ~
#80000
0!
0&
#85000
1!
b11000 !!
b1000001100001110110011 "!
1&
0+
0,
b0 -!
b10100 /
b11100 0
b1000001001010000110011 1
b11000 3
b1000001100001110110011 4
b111 8
b100 9
b10100 :!
b110 @!
b110 A!
b11 C!
b111 D!
b100 G
b10 H
b111 J!
b1 K!
b10100 M!
b101 N!
b0 O!
b1 Q!
b10 T!
b10100 U
b110 [
b10 [!
b110 \
b10000 \!
b100 ]!
b0 ^!
b0 _!
b1 `
b101 a
b11 b
b101 c
b11 e
b111 f
0g
b11000 h
b10100 i
b110 j
0m
b111 s
b1 t
b10100 v
b101 w
b10 |
b10000 }
b11100 ~
#90000
0!
0&
#95000
1!
b11100 !!
b1000001001010000110011 "!
1&
0+
b0 -!
b11000 /
b100000 0
b1000001101010010110011 1
b11100 3
b1000001001010000110011 4
b1000 8
b1 9
b11000 :!
b111 @!
b100 A!
b100 C!
b110 D!
b101 G
b1 H
b110 J!
b111 K!
b11000 M!
b110 N!
b0 O!
b11 Q!
b1 R!
b111 S!
b1 T!
b11000 U
b111 [
b1 [!
b100 \
b10100 \!
b101 ]!
b0 ^!
b0 _!
b111 `
b101 a
b11 b
b101 c
b100 e
b110 f
0g
b11100 h
b11000 i
0m
b110 s
b111 t
b11000 v
b110 w
b1 |
b10100 }
b100000 ~
#100000
0!
0&
#105000
1!
b100000 !!
b1000001101010010110011 "!
1&
0+
0,
b0 -!
b11100 /
b100100 0
b100010010010100110011 1
b100000 3
b1000001101010010110011 4
b1001 8
b101 9
b11100 :!
b1000 @!
b1 A!
b101 C!
b101000 D!
b110 G
b111 H
b100 J!
b110 K!
b11100 M!
b111 N!
b0 O!
b10 Q!
b110 S!
b11 T!
b11100 U
b1000 [
b111 [!
b1 \
b11000 \!
b110 ]!
b0 ^!
b0 _!
b110 `
b101 a
b11 b
b101 c
b101 e
b101000 f
0g
b100000 h
b11100 i
b101000 j
1m
b100 s
b110 t
b11100 v
b111 w
b111 |
b11000 }
b100100 ~
#110000
0!
0&
#115000
1!
b100100 !!
b100010010010100110011 "!
1&
0+
b0 -!
b100000 /
b101000 0
b1000001011010110110011 1
b100100 3
b100010010010100110011 4
b10 6
b1 7
b1010 8
b10 9
b100000 :!
b1001 @!
b101 A!
b110 C!
b0 D!
b111 G
b110 H
b11 I
b101 J
b1 J!
b101000 K!
b100000 M!
b1000 N!
b0 O!
b0 Q!
b1010 R!
b100 S!
b10 T!
b100000 U
b1001 [
b110 [!
b101 \
b11100 \!
b111 ]!
b0 ^!
b0 _!
b101000 `
b101 a
b11 b
b101 c
b110 e
b0 f
1g
b100100 h
b100000 i
b0 j
1m
b1 s
b101000 t
b100000 v
b1000 w
b110 |
b11100 }
b101000 ~
#120000
0!
0&
#125000
1!
b101000 !!
b1000001011010110110011 "!
1&
0+
0,
b0 -!
b100100 /
b101100 0
b1011000110111 1
b101000 3
b1000001011010110110011 4
b1 6
b10 7
b1011 8
b11 9
b100100 :!
b11 ;!
b101 <!
b10 >!
b1 ?!
b1010 @!
b10 A!
b1000 C!
b1 D!
b1000 G
b101000 H
b101 I
b11 J
b101 J!
b0 K!
b100100 M!
b1001 N!
b0 O!
b0 R!
b1 S!
b0 T!
b100100 U
b11 V
b101 W
b10 Y
b1 Z
b1010 [
b101000 [!
b10 \
b100000 \!
b1000 ]!
b0 ^!
b0 _!
b0 `
b11 a
b101 b
b11 c
b101 d
b1000 e
b1 f
0g
b101000 h
b100100 i
1k
1l
0m
b101 s
b0 t
b100100 v
b1001 w
b101000 |
b100000 }
b101100 ~
#130000
0!
0&
#135000
1!
b101100 !!
b1011000110111 "!
1#!
0$!
0%!
1&
0&!
1'!
0(!
0)!
1*!
0+
0+!
b0 ,!
b1000000000000 -!
b110111 .!
b101000 /
b110000 0
b10011100000011 1
b101100 3
b1011000110111 4
b110111 5
b0 6
b0 7
b1100 8
b1 9
b101000 :!
b101 ;!
b11 <!
b1 >!
1?
b10 ?!
b1011 @!
b11 A!
1B
b1001 C!
b0 D
b0 D!
b1000000000000 E
b1001 G
b0 H
b0 I
b0 J
b10 J!
b1 K!
b101 L!
b101000 M!
b1010 N!
b0 O!
b1 Q!
b101 S!
b101000 U
b101 V
b11 W
b1 Y
b10 Z
b1011 [
b0 [!
b11 \
b100100 \!
b1001 ]!
b0 ^!
b0 _!
b1 `
b101 a
b11 b
b101 c
b11 d
b1001 e
b0 f
1g
b101100 h
b101000 i
0k
0l
0m
b10 s
b1 t
b101 u
b101000 v
b1010 w
b0 |
b100100 }
b110000 ~
#140000
0!
0&
#145000
1!
b110000 !!
b10011100000011 "!
1#!
1$!
0%!
1&
1&!
1'!
0(!
0)!
0*!
0+
0+!
0,
b0 ,!
b0 -!
b11 .!
b1000000101100 /
b110100 0
b10000000010011110000011 1
b110000 3
b10011100000011 4
14!
b11 5
17!
b1110 8
b10 9
b0 9!
b101100 :!
b0 ;!
1<
b0 <!
b1000000000000 =!
1>
b0 >!
b0 ?!
b1100 @!
b1 A!
0B
b1010 C!
b1000000000000 D!
b0 E
b1010 G
b1 H
b11 J!
b0 K!
b11 L!
b101100 M!
b1011 N!
1O
b0 O!
b0 Q!
1R
b10 S!
b0 T
b1 T!
b101100 U
b0 V
b0 W
b1000000000000 X
b0 Y
b0 Z
b1100 [
b1 [!
b1 \
b101000 \!
b1010 ]!
b0 ^!
b0 _!
b0 `
b0 a
b0 b
b0 c
b1000000000000 d
b1010 e
b1000000000000 f
0g
b110000 h
b1000000101100 i
b1000000000000 j
0k
0l
1m
0n
b11 s
b0 t
b11 u
b101100 v
b1011 w
b1 |
b101000 }
b110100 ~
#150000
0!
0&
#155000
1!
b110100 !!
b10000000010011110000011 "!
1&
0+
0,
b100 -!
b110000 /
b111000 0
b100000010010000100011 1
11!
b110100 3
13!
b10000000010011110000011 4
b100 7
07!
b1111 8
b110000 :!
b0 =!
b1110 @!
b10 A!
b0 C!
b0 D!
b100 E
b1011 G
b0 H
b10 J
b1 J!
b1000000000000 K!
1L
b0 L!
b110000 M!
1N
b1100 N!
b0 O!
0R
b11 S!
b0 T!
b110000 U
b0 X
b1110 [
b0 [!
b10 \
b101100 \!
b1011 ]!
b0 ^!
b0 _!
b1000000000000 `
b0 a
b0 b
b0 c
b0 d
b0 e
b0 f
1g
b110100 h
b110000 i
b0 j
0m
b1 s
b1000000000000 t
b0 u
b110000 v
b1100 w
b0 |
b101100 }
b111000 ~
#160000
0!
0&
#165000
1!
b111000 !!
b100000010010000100011 "!
0#!
0$!
1%!
1&
0&!
1'!
1(
0(!
0)!
1*
0*!
0+
0+!
b0 ,!
1-
b1000 -!
b100011 .!
b111000 /
b111100 0
b10011 1
b111000 3
b100000010010000100011 4
b100011 5
b1 7
b1000 8
b110100 :!
0;
0<
b10 <!
1=
b100 =!
0>
b100 ?!
b1111 @!
b100 D!
b1000 E
1F!
b1100 G
b1000000000000 H
1H!
b101 J
b10 J!
b0 K!
b110100 M!
b1110 N!
b0 O!
b1 S!
b110100 U
b10 W
b100 X
b100 Z
b1111 [
b1000000000000 [!
b110000 \!
b1100 ]!
b0 ^!
b0 _!
b0 `
b0 a
b10 b
b0 c
b100 d
b100 f
0g
b111000 h
b111000 i
b100 j
1k
1l
0m
1q
b10 s
b0 t
b110100 v
b1110 w
b1000000000000 |
b110000 }
b111100 ~
#170000
0!
0&
#175000
1!
1&
1)
0*
0-
0F
b0 G
b0 H
b1100100 O!
b10 S!
1U!
b1100100 V!
0W!
b0 [!
b0 \!
b0 ]!
b0 ^!
b0 _!
b0 a
b10 b
b1100100 x
b0 |
b0 }
#180000
0!
0&
#185000
1!
b111100 !!
b10011 "!
1#!
0$!
0%!
1&
0&!
1'!
0(!
0)
0)!
1*
0*!
0+
0+!
b11 ,!
1-
b0 -!
b10011 .!
b1000000 /
b1000000 0
00!
01!
12!
b111100 3
03!
b10011 4
b10011 5
b0 7
b0 8
b0 9
b111000 :!
1;
b101 <!
0=
b1000 =!
b1 ?!
b1000 @!
b11 D
b1000 D!
b0 E
1F
b1110 G
b1100100 H
b0 J
0K
b100 K!
0L
b10 L!
1M
b111000 M!
0N
b1111 N!
b1 R!
b111000 U
b101 W
1W!
b1000 X
1X!
b1 Z
b1100100 Z!
b1000 [
b110100 \!
b1110 ]!
b0 ^!
b0 _!
b100 `
b0 a
b101 b
b0 c
b1000 d
b1000 f
0g
b111100 h
b1000000 i
b1000 j
1k
1l
b100 t
b10 u
b111000 v
b1111 w
1y
b1100100 {
b110100 }
b1000000 ~
#190000
0!
0&
#195000
1!
1&
1)
0*
0-
0F
b0 G
b0 H
b11001000 O!
b11001000 V!
0W!
0X!
b0 Z!
b0 \!
b0 ]!
b0 ^!
b0 _!
b0 a
b101 b
b11001000 x
0y
b0 {
b0 }
#200000
0!
0&
#205000
1!
b1000000 !!
1&
0(
0)
0*
0+
0,
0-
b111100 /
b1000100 0
10!
02!
b1000000 3
b11 9!
b111100 :!
b0 <!
b0 =!
b0 ?!
b0 @!
b0 A!
b0 C!
b0 D!
0E!
1F
0F!
b1111 G
1G!
b11001000 H
0H!
1K
b1000 K!
b101 L!
0M
b111100 M!
b1000 N!
b10 R!
b11 T
b111100 U
b0 W
1W!
b0 X
1X!
b0 Z
b11001000 Z!
b0 [
b100 [!
b0 \
b111000 \!
b1111 ]!
b0 ^!
b0 _!
b1000 `
b0 a
b0 b
b0 c
b0 d
b0 f
1g
b1000000 h
b111100 i
b0 j
0k
0l
1m
0o
1p
0q
b1000 t
b101 u
b111100 v
b1000 w
1y
b11001000 {
b100 |
b111000 }
b1000100 ~
#210000
0!
0&
#215000
1!
b1000100 !!
1&
b1000000 /
b1001000 0
b1000100 3
b1000000 :!
1E!
0F
b1000 G
0G!
b1000 H
b0 J!
b0 K!
b0 L!
b1000000 M!
b0 N!
b0 O!
b0 R!
b1000000 U
0U!
0W!
0X!
b1000 [!
b111100 \!
b1000 ]!
b0 ^!
b0 _!
b0 `
b0 a
b0 b
b0 c
b1000100 h
b1000000 i
1o
0p
b0 s
b0 t
b0 u
b1000000 v
b0 w
b0 x
0y
b1000 |
b111100 }
b1001000 ~
#220000
0!
0&
#225000
1!
b1001000 !!
1&
b1000100 /
b1001100 0
bx 1
b1001000 3
b1000100 :!
1F
b0 G
b0 H
b1000100 M!
b0 O!
b0 S!
b1000100 U
1W!
b0 Z!
b0 [!
b1000000 \!
b0 ]!
b0 ^!
b0 _!
b0 a
b0 b
b0 c
b1001000 h
b1000100 i
b1000100 v
b0 {
b0 |
b1000000 }
b1001100 ~
#230000
0!
0&
#235000
1!
b1001100 !!
bx "!
0#!
0$!
0%!
1&
0&!
0'!
0(!
0)!
0*!
0+
0+!
b0 ,!
b0 -!
bx .!
b1001000 /
b1010000 0
b1001100 3
bx 4
bx 5
bx 6
bx 7
bx 8
bx 9
x:
b1001000 :!
0;
0?
b0 D
b0 H
bx I
bx J
b1001000 M!
b1001000 U
b1000100 \!
b0 c
b1001100 h
b1001000 i
b1001000 v
b1000100 }
b1010000 ~
#240000
0!
0&
#245000
1!
b1010000 !!
1&
0+
0,
b1001100 /
b1010100 0
00!
b1010000 3
04!
b0 9!
b1001100 :!
bx ;!
bx <!
bx >!
bx ?!
bx @!
bx A!
xB!
b0 C!
bx D!
b0 H
0K
b1001100 M!
0O
b0 T
b1001100 U
bx V
bx W
bx Y
bx Z
bx [
bx \
b1001000 \!
x]
b0 ^!
b0 _!
bx a
bx b
bx c
bx d
bx f
xg
b1010000 h
b1001100 i
bx0 j
xk
xl
xm
0n
b1001100 v
b1001000 }
b1010100 ~
#250000
0!
0&
#255000
1!
b1010100 !!
1&
b1010000 /
b1011000 0
b1010100 3
b1010000 :!
0E!
b0 H
bx J!
bx K!
bx L!
b1010000 M!
bx N!
bx Q!
bx R!
b1010000 U
b1001100 \!
b0 ^!
b0 _!
bx `
bx a
bx b
bx c
b1010100 h
b1010000 i
0o
bx s
bx t
bx u
b1010000 v
bx w
b1001100 }
b1011000 ~
#260000
0!
0&
#265000
1!
b1011000 !!
1&
b1010100 /
b1011100 0
b1011000 3
b1010100 :!
0F
bx G
bx H
b1010100 M!
b0 O!
bx S!
bx T!
b1010100 U
0W!
bx [!
b1010000 \!
bx ]!
b0 ^!
b0 _!
bx a
bx b
bx c
b1011000 h
b1010100 i
b1010100 v
bx |
b1010000 }
b1011100 ~
#270000
0!
0&
#275000
1!
b1011100 !!
1&
b1011000 /
b1100000 0
b1011100 3
b1011000 :!
bx H
b1011000 M!
b1011000 U
b1010100 \!
bx c
b1011100 h
b1011000 i
b1011000 v
b1010100 }
b1100000 ~
#280000
0!
0&
#285000
1!
b1100000 !!
1&
b1011100 /
b1100100 0
b1100000 3
b1011100 :!
bx H
b1011100 M!
b1011100 U
b1011000 \!
bx c
b1100000 h
b1011100 i
b1011100 v
b1011000 }
b1100100 ~
#290000
0!
0&
#295000
1!
b1100100 !!
1&
b1100000 /
b1101000 0
b1100100 3
b1100000 :!
bx H
b1100000 M!
b1100000 U
b1011100 \!
bx c
b1100100 h
b1100000 i
b1100000 v
b1011100 }
b1101000 ~
#300000
0!
0&
#305000
1!
b1101000 !!
1&
b1100100 /
b1101100 0
b1101000 3
b1100100 :!
bx H
b1100100 M!
b1100100 U
b1100000 \!
bx c
b1101000 h
b1100100 i
b1100100 v
b1100000 }
b1101100 ~
#310000
0!
0&
#315000
1!
b1101100 !!
1&
b1101000 /
b1110000 0
b1101100 3
b1101000 :!
bx H
b1101000 M!
b1101000 U
b1100100 \!
bx c
b1101100 h
b1101000 i
b1101000 v
b1100100 }
b1110000 ~
#320000
0!
0&
#325000
1!
b1110000 !!
1&
b1101100 /
b1110100 0
b1110000 3
b1101100 :!
bx H
b1101100 M!
b1101100 U
b1101000 \!
bx c
b1110000 h
b1101100 i
b1101100 v
b1101000 }
b1110100 ~
#330000
0!
0&
