sim_logs/waves.vcd
$date
   Wed Apr  8 15:47:58 2026
$end
$version
  2022.2
$end
$timescale
  1ps
$end
$scope module tb_top $end
$var reg 1 ! clk $end
$var reg 1 " rst $end
$var integer 32 # pass_count [31:0] $end
$var integer 32 $ fail_count [31:0] $end
$var integer 32 % test_num [31:0] $end
$scope module uut $end
$var wire 1 & clk $end
$var wire 1 ' rst $end
$var wire 1 ( stall $end
$var wire 1 ) pc_sel $end
$var wire 32 * jump_tgt [31:0] $end
$var wire 32 + pc_if [31:0] $end
$var wire 32 , instr_if [31:0] $end
$var wire 1 - flush_if_id $end
$var wire 32 . pc_id [31:0] $end
$var wire 32 / instr_id [31:0] $end
$var wire 7 0 opcode [6:0] $end
$var wire 5 1 rs1_addr_id [4:0] $end
$var wire 5 2 rs2_addr_id [4:0] $end
$var wire 5 3 rd_addr_id [4:0] $end
$var wire 3 4 funct3_id [2:0] $end
$var wire 1 5 funct7_5_id $end
$var wire 1 6 reg_write_id $end
$var wire 1 7 mem_read_id $end
$var wire 1 8 mem_write_id $end
$var wire 1 9 mem_to_reg_id $end
$var wire 1 : alu_src_id $end
$var wire 1 ; branch_id $end
$var wire 1 < jump_id $end
$var wire 1 = lui_id $end
$var wire 1 > auipc_id $end
$var wire 2 ? alu_op_id [1:0] $end
$var wire 32 @ imm_id [31:0] $end
$var wire 1 A reg_write_wb $end
$var wire 5 B rd_addr_wb [4:0] $end
$var wire 32 C wd_data_wb [31:0] $end
$var wire 32 D rs1_data_id [31:0] $end
$var wire 32 E rs2_data_id [31:0] $end
$var wire 1 F flush_id_ex $end
$var wire 1 G reg_write_ex $end
$var wire 1 H mem_read_ex $end
$var wire 1 I mem_write_ex $end
$var wire 1 J mem_to_reg_ex $end
$var wire 1 K alu_src_ex $end
$var wire 1 L branch_ex $end
$var wire 1 M jump_ex $end
$var wire 1 N lui_ex $end
$var wire 1 O auipc_ex $end
$var wire 2 P alu_op_ex [1:0] $end
$var wire 32 Q pc_ex [31:0] $end
$var wire 32 R rs1_data_ex [31:0] $end
$var wire 32 S rs2_data_ex [31:0] $end
$var wire 32 T imm_ex [31:0] $end
$var wire 5 U rs1_addr_ex [4:0] $end
$var wire 5 V rs2_addr_ex [4:0] $end
$var wire 5 W rd_addr_ex [4:0] $end
$var wire 3 X funct3_ex [2:0] $end
$var wire 1 Y funct7_5_ex $end
$var wire 2 Z forward_a [1:0] $end
$var wire 2 [ forward_b [1:0] $end
$var wire 32 \ alu_result_mem_fwd [31:0] $end
$var wire 32 ] forwarded_a_raw [31:0] $end
$var wire 32 ^ forwarded_b [31:0] $end
$var wire 32 _ alu_in_a [31:0] $end
$var wire 32 ` alu_in_b [31:0] $end
$var wire 4 a alu_ctrl [3:0] $end
$var wire 32 b alu_result_ex [31:0] $end
$var wire 1 c alu_zero $end
$var wire 32 d pc_plus4_ex [31:0] $end
$var wire 32 e jal_tgt [31:0] $end
$var wire 32 f jalr_tgt [31:0] $end
$var wire 1 g signed_lt $end
$var wire 1 h unsigned_lt $end
$var wire 1 i branch_taken_wire $end
$var wire 1 j opcode_ex_is_jalr $end
$var wire 1 k reg_write_mem $end
$var wire 1 l mem_read_mem $end
$var wire 1 m mem_write_mem $end
$var wire 1 n mem_to_reg_mem $end
$var wire 1 o jump_mem $end
$var wire 3 p funct3_mem [2:0] $end
$var wire 32 q alu_result_mem [31:0] $end
$var wire 32 r rs2_data_mem [31:0] $end
$var wire 32 s pc_plus4_mem [31:0] $end
$var wire 5 t rd_addr_mem [4:0] $end
$var wire 32 u read_data_mem [31:0] $end
$var wire 1 v mem_to_reg_wb $end
$var wire 1 w jump_wb $end
$var wire 32 x read_data_wb [31:0] $end
$var wire 32 y alu_result_wb [31:0] $end
$var wire 32 z pc_plus4_wb [31:0] $end
$scope module pc_reg_inst $end
$var wire 1 & clk $end
$var wire 1 ' rst $end
$var wire 1 ( stall $end
$var wire 1 ) pc_sel $end
$var wire 32 * branch_tgt [31:0] $end
$var reg 32 { pc [31:0] $end
$upscope $end
$scope module imem_inst $end
$var wire 32 + addr [31:0] $end
$var wire 32 , instr [31:0] $end
$upscope $end
$scope module if_id_reg_inst $end
$var wire 1 & clk $end
$var wire 1 ' rst $end
$var wire 1 ( stall $end
$var wire 1 - flush $end
$var wire 32 + pc_in [31:0] $end
$var wire 32 , instr_in [31:0] $end
$var reg 32 | pc_out [31:0] $end
$var reg 32 } instr_out [31:0] $end
$upscope $end
$scope module control_inst $end
$var wire 7 0 opcode [6:0] $end
$var reg 1 ~ reg_write $end
$var reg 1 !! mem_read $end
$var reg 1 "! mem_write $end
$var reg 1 #! mem_to_reg $end
$var reg 1 $! alu_src $end
$var reg 1 %! branch $end
$var reg 1 &! jump $end
$var reg 1 '! lui $end
$var reg 1 (! auipc $end
$var reg 2 )! alu_op [1:0] $end
$upscope $end
$scope module imm_gen_inst $end
$var wire 32 / instr [31:0] $end
$var reg 32 *! imm_out [31:0] $end
$var wire 7 +! opcode [6:0] $end
$upscope $end
$scope module regfile_inst $end
$var wire 1 & clk $end
$var wire 1 A we $end
$var wire 5 B wd_addr [4:0] $end
$var wire 32 C wd_data [31:0] $end
$var wire 5 1 rs1_addr [4:0] $end
$var wire 5 2 rs2_addr [4:0] $end
$var wire 32 D rs1_data [31:0] $end
$var wire 32 E rs2_data [31:0] $end
$var integer 32 ,! i [31:0] $end
$upscope $end
$scope module id_ex_reg_inst $end
$var wire 1 & clk $end
$var wire 1 ' rst $end
$var wire 1 F flush $end
$var wire 1 6 reg_write_in $end
$var wire 1 7 mem_read_in $end
$var wire 1 8 mem_write_in $end
$var wire 1 9 mem_to_reg_in $end
$var wire 1 : alu_src_in $end
$var wire 1 ; branch_in $end
$var wire 1 < jump_in $end
$var wire 1 = lui_in $end
$var wire 1 > auipc_in $end
$var wire 2 ? alu_op_in [1:0] $end
$var wire 32 . pc_in [31:0] $end
$var wire 32 D rs1_data_in [31:0] $end
$var wire 32 E rs2_data_in [31:0] $end
$var wire 32 @ imm_in [31:0] $end
$var wire 5 1 rs1_addr_in [4:0] $end
$var wire 5 2 rs2_addr_in [4:0] $end
$var wire 5 3 rd_addr_in [4:0] $end
$var wire 3 4 funct3_in [2:0] $end
$var wire 1 5 funct7_5_in $end
$var reg 1 -! reg_write_out $end
$var reg 1 .! mem_read_out $end
$var reg 1 /! mem_write_out $end
$var reg 1 0! mem_to_reg_out $end
$var reg 1 1! alu_src_out $end
$var reg 1 2! branch_out $end
$var reg 1 3! jump_out $end
$var reg 1 4! lui_out $end
$var reg 1 5! auipc_out $end
$var reg 2 6! alu_op_out [1:0] $end
$var reg 32 7! pc_out [31:0] $end
$var reg 32 8! rs1_data_out [31:0] $end
$var reg 32 9! rs2_data_out [31:0] $end
$var reg 32 :! imm_out [31:0] $end
$var reg 5 ;! rs1_addr_out [4:0] $end
$var reg 5 <! rs2_addr_out [4:0] $end
$var reg 5 =! rd_addr_out [4:0] $end
$var reg 3 >! funct3_out [2:0] $end
$var reg 1 ?! funct7_5_out $end
$upscope $end
$scope module hazard_inst $end
$var wire 1 H id_ex_mem_read $end
$var wire 5 W id_ex_rd [4:0] $end
$var wire 5 1 if_id_rs1 [4:0] $end
$var wire 5 2 if_id_rs2 [4:0] $end
$var wire 1 ( stall $end
$upscope $end
$scope module alu_control_inst $end
$var wire 2 P alu_op [1:0] $end
$var wire 3 X funct3 [2:0] $end
$var wire 1 Y funct7_5 $end
$var wire 1 N lui $end
$var reg 4 @! alu_ctrl [3:0] $end
$upscope $end
$scope module alu_inst $end
$var wire 32 _ a [31:0] $end
$var wire 32 ` b [31:0] $end
$var wire 4 a alu_ctrl [3:0] $end
$var reg 32 A! result [31:0] $end
$var wire 1 c zero $end
$upscope $end
$scope module ex_mem_reg_inst $end
$var wire 1 & clk $end
$var wire 1 ' rst $end
$var wire 1 G reg_write_in $end
$var wire 1 H mem_read_in $end
$var wire 1 I mem_write_in $end
$var wire 1 J mem_to_reg_in $end
$var wire 1 M jump_in $end
$var wire 3 X funct3_in [2:0] $end
$var wire 32 b alu_result_in [31:0] $end
$var wire 32 ^ rs2_data_in [31:0] $end
$var wire 32 d pc_plus4_in [31:0] $end
$var wire 5 W rd_addr_in [4:0] $end
$var reg 1 B! reg_write_out $end
$var reg 1 C! mem_read_out $end
$var reg 1 D! mem_write_out $end
$var reg 1 E! mem_to_reg_out $end
$var reg 1 F! jump_out $end
$var reg 3 G! funct3_out [2:0] $end
$var reg 32 H! alu_result_out [31:0] $end
$var reg 32 I! rs2_data_out [31:0] $end
$var reg 32 J! pc_plus4_out [31:0] $end
$var reg 5 K! rd_addr_out [4:0] $end
$upscope $end
$scope module forward_inst $end
$var wire 5 U id_ex_rs1 [4:0] $end
$var wire 5 V id_ex_rs2 [4:0] $end
$var wire 1 k ex_mem_reg_write $end
$var wire 5 t ex_mem_rd [4:0] $end
$var wire 1 A mem_wb_reg_write $end
$var wire 5 B mem_wb_rd [4:0] $end
$var reg 2 L! forward_a [1:0] $end
$var reg 2 M! forward_b [1:0] $end
$upscope $end
$scope module dmem_inst $end
$var wire 1 & clk $end
$var wire 1 l mem_read $end
$var wire 1 m mem_write $end
$var wire 3 p funct3 [2:0] $end
$var wire 32 q addr [31:0] $end
$var wire 32 r wd [31:0] $end
$var reg 32 N! rd [31:0] $end
$var integer 32 O! i [31:0] $end
$var wire 8 P! byte_offset [7:0] $end
$var wire 30 Q! word_addr [29:0] $end
$var wire 32 R! word_data [31:0] $end
$upscope $end
$scope module mem_wb_reg_inst $end
$var wire 1 & clk $end
$var wire 1 ' rst $end
$var wire 1 k reg_write_in $end
$var wire 1 n mem_to_reg_in $end
$var wire 1 o jump_in $end
$var wire 32 u read_data_in [31:0] $end
$var wire 32 q alu_result_in [31:0] $end
$var wire 32 s pc_plus4_in [31:0] $end
$var wire 5 t rd_addr_in [4:0] $end
$var reg 1 S! reg_write_out $end
$var reg 1 T! mem_to_reg_out $end
$var reg 1 U! jump_out $end
$var reg 32 V! read_data_out [31:0] $end
$var reg 32 W! alu_result_out [31:0] $end
$var reg 32 X! pc_plus4_out [31:0] $end
$var reg 5 Y! rd_addr_out [4:0] $end
$upscope $end
$upscope $end
$scope task CHECK $end
$var reg 5 Z! reg_idx [4:0] $end
$var reg 32 [! expected [31:0] $end
$var reg 64 \! test_name [63:0] $end
$upscope $end
$scope task RESET_CPU $end
$upscope $end
$scope task RUN $end
$var integer 32 ]! cycles [31:0] $end
$upscope $end
$upscope $end
$enddefinitions $end
#0
$dumpvars
0!
0!!
1"
0"!
b0 #
0#!
b0 $
0$!
b0 %
0%!
0&
0&!
1'
0'!
0(
0(!
0)
b0 )!
b0 *
b0 *!
b0 +
b0 +!
b10100000000000010010011 ,
b100000 ,!
0-
0-!
b0 .
0.!
b0 /
0/!
b0 0
00!
b0 1
01!
b0 2
02!
b0 3
03!
b0 4
04!
05
05!
06
b0 6!
07
b0 7!
08
b0 8!
09
b0 9!
0:
b0 :!
0;
b0 ;!
0<
b0 <!
0=
b0 =!
0>
b0 >!
b0 ?
0?!
b0 @
b0 @!
0A
b0 A!
b0 B
0B!
b0 C
0C!
b0 D
0D!
b0 E
0E!
0F
0F!
0G
b0 G!
0H
b0 H!
0I
b0 I!
0J
b0 J!
0K
b0 K!
0L
b0 L!
0M
b0 M!
0N
b0 N!
0O
b100000000 O!
b0 P
b0 P!
b0 Q
b0 Q!
b0 R
b0 R!
b0 S
0S!
b0 T
0T!
b0 U
0U!
b0 V
b0 V!
b0 W
b0 W!
b0 X
b0 X!
0Y
b0 Y!
b0 Z
b0 Z!
b0 [
b0 [!
b0 \
b0 \!
b0 ]
b0 ]!
b0 ^
b0 _
b0 `
b0 a
b0 b
1c
b100 d
b0 e
b0 f
0g
0h
1i
0j
0k
0l
0m
0n
0o
b0 p
b0 q
b0 r
b0 s
b0 t
b0 u
0v
0w
b0 x
b0 y
b0 z
b0 {
b0 |
b0 }
0~
$end
#5000
1!
1&
#10000
0!
0&
#15000
1!
1&
#20000
0!
0&
#25000
1!
0!!
0"
0"!
0#!
1$!
0%!
1&
0&!
0'
0'!
0(
0(!
b11 )!
b101 *!
b100 +
b10011 +!
b1100000000000100010011 ,
b10100000000000010010011 /
b10011 0
b101 2
b1 3
16
1:
b11 ?
b101 @
b100 J!
b100 s
b100 {
b10100000000000010010011 }
1~
#30000
0!
0&
#35000
1!
1&
0(
0)
b101 *
b11 *!
b1000 +
b1000001000000110110011 ,
1-!
b100 .
b1100000000000100010011 /
11!
b11 2
b10 3
b11 6!
b101 :!
b101 <!
b1 =!
b11 @
b0 @!
b101 A!
b0 C
1G
1K
b0 L!
b0 M!
b0 N!
b11 P
b1100100 R!
b101 T
b101 V
b1 W
b100 X!
b101 `
b101 b
0c
b101 e
b100 f
0i
0j
b100 z
b1000 {
b100 |
b1100000000000100010011 }
#40000
0!
0&
#45000
1!
0!!
0"!
0#!
0$!
0%!
1&
0&!
0'!
0(
0(!
b10 )!
b111 *
b0 *!
b1100 +
b110011 +!
b1000000001000001000001000110011 ,
b1000 .
b1000001000000110110011 /
b110011 0
b1 1
b10 2
b11 3
b100 7!
0:
b11 :!
b11 <!
b10 =!
b10 ?
b0 @
b11 A!
1B!
b101 H!
b1 K!
b0 L!
b0 M!
b0 N!
b1 P!
b100 Q
b1 Q!
b11001000 R!
b11 T
b11 V
b10 W
b101 \
b0 ]
b0 ^
b0 _
b11 `
b11 b
0c
b1000 d
b111 e
b10 f
1k
b101 q
b1 t
b1100 {
b1000 |
b1000001000000110110011 }
1~
#50000
0!
0&
#55000
1!
1&
0(
0)
b1000 *
b0 *!
b10000 +
b1000001111001010110011 ,
b1100 .
b1000000001000001000001000110011 /
01!
b100 3
15
b10 6!
b1000 7!
b0 :!
b1 ;!
b10 <!
b11 =!
b0 @!
1A
b1000 A!
b1 B
b101 C
b101 D
b11 H!
b1000 J!
0K
b10 K!
b1 L!
b10 M!
b0 N!
b10 P
b11 P!
b1000 Q
b0 Q!
b1100100 R!
1S!
b0 T
b1 U
b10 V
b11 W
b101 W!
b1 Y!
b1 Z
b10 [
b11 \
b101 ]
b11 ^
b101 _
b11 `
b1000 b
0c
b1100 d
b1000 e
b1000 f
0g
0h
0i
0j
b11 q
b1000 s
b10 t
b101 y
b10000 {
b1100 |
b1000000001000001000001000110011 }
#60000
0!
0&
#65000
1!
1&
0(
b1100 *
b0 *!
b10100 +
b1000001110001100110011 ,
b10000 .
b1000001111001010110011 /
b101 3
b111 4
05
b1100 7!
b101 8!
b100 =!
1?!
b1 @!
b10 A!
b10 B
b11 C
b11 E
b1000 H!
b11 I!
b1100 J!
b11 K!
b0 L!
b1 M!
b0 N!
b0 P!
b1100 Q
b10 Q!
b101 R
b11111111111111111111111111111111 R!
b100 W
b11 W!
b1000 X!
1Y
b10 Y!
b0 Z
b1 [
b1000 \
b101 ]
b11 ^
b101 _
b11 `
b1 a
b10 b
0c
b10000 d
b1100 e
b10 f
0g
0h
0i
b1000 q
b11 r
b1100 s
b11 t
b11 y
b1000 z
b10100 {
b10000 |
b1000001111001010110011 }
#70000
0!
0&
#75000
1!
1&
0(
0)
b10000 *
b0 *!
b11000 +
b1000001100001110110011 ,
b10100 .
b1000001110001100110011 /
b110 3
b110 4
b10000 7!
b11 9!
b101 =!
b111 >!
0?!
b10 @!
b1 A!
b11 B
b1000 C
b10 H!
b10000 J!
b100 K!
b0 L!
b0 M!
b0 N!
b10 P!
b10000 Q
b0 Q!
b1100100 R!
b11 S
b101 W
b1000 W!
b111 X
b1100 X!
0Y
b11 Y!
b0 [
b10 \
b101 ]
b11 ^
b101 _
b11 `
b10 a
b1 b
0c
b10100 d
b10000 e
b0 f
0g
0h
1i
b10 q
b10000 s
b100 t
b1000 y
b1100 z
b11000 {
b10100 |
b1000001110001100110011 }
#80000
0!
0&
#85000
1!
1&
0(
0)
b10100 *
b0 *!
b11100 +
b1000001001010000110011 ,
b11000 .
b1000001100001110110011 /
b111 3
b100 4
b10100 7!
b110 =!
b110 >!
b11 @!
b111 A!
b100 B
b10 C
b111 G!
b1 H!
b10100 J!
b101 K!
b0 L!
b0 M!
b0 N!
b1 P!
b10100 Q
b110 W
b10 W!
b110 X
b10000 X!
b100 Y!
b1 \
b101 ]
b11 ^
b101 _
b11 a
b111 b
0c
b11000 d
b10100 e
b110 f
0i
b111 p
b1 q
b10100 s
b101 t
b10 y
b10000 z
b11100 {
b11000 |
b1000001100001110110011 }
#90000
0!
0&
#95000
1!
1&
0(
b11000 *
b0 *!
b100000 +
b1000001101010010110011 ,
b11100 .
b1000001001010000110011 /
b1000 3
b1 4
b11000 7!
b111 =!
b100 >!
b100 @!
b110 A!
b101 B
b1 C
b110 G!
b111 H!
b11000 J!
b110 K!
b0 L!
b0 M!
b0 N!
b11 P!
b11000 Q
b1 Q!
b11001000 R!
b111 W
b1 W!
b100 X
b10100 X!
b101 Y!
b111 \
b101 ]
b11 ^
b101 _
b100 a
b110 b
0c
b11100 d
b11000 e
0i
b110 p
b111 q
b11000 s
b110 t
b1 y
b10100 z
b100000 {
b11100 |
b1000001001010000110011 }
#100000
0!
0&
#105000
1!
1&
0(
0)
b11100 *
b0 *!
b100100 +
b100010010010100110011 ,
b100000 .
b1000001101010010110011 /
b1001 3
b101 4
b11100 7!
b1000 =!
b1 >!
b101 @!
b101000 A!
b110 B
b111 C
b100 G!
b110 H!
b11100 J!
b111 K!
b0 L!
b0 M!
b0 N!
b10 P!
b11100 Q
b1000 W
b111 W!
b1 X
b11000 X!
b110 Y!
b110 \
b101 ]
b11 ^
b101 _
b101 a
b101000 b
0c
b100000 d
b11100 e
b101000 f
1i
b100 p
b110 q
b11100 s
b111 t
b111 y
b11000 z
b100100 {
b100000 |
b1000001101010010110011 }
#110000
0!
0&
#115000
1!
1&
0(
b100000 *
b0 *!
b101000 +
b1000001011010110110011 ,
b100100 .
b100010010010100110011 /
b10 1
b1 2
b1010 3
b10 4
b100000 7!
b1001 =!
b101 >!
b110 @!
b0 A!
b111 B
b110 C
b11 D
b101 E
b1 G!
b101000 H!
b100000 J!
b1000 K!
b0 L!
b0 M!
b0 N!
b0 P!
b100000 Q
b1010 Q!
b0 R!
b1001 W
b110 W!
b101 X
b11100 X!
b111 Y!
b101000 \
b101 ]
b11 ^
b101 _
b110 a
b0 b
1c
b100100 d
b100000 e
b0 f
1i
b1 p
b101000 q
b100000 s
b1000 t
b110 y
b11100 z
b101000 {
b100100 |
b100010010010100110011 }
#120000
0!
0&
#125000
1!
1&
0(
0)
b100100 *
b0 *!
b101100 +
b1011000110111 ,
b101000 .
b1000001011010110110011 /
b1 1
b10 2
b1011 3
b11 4
b100100 7!
b11 8!
b101 9!
b10 ;!
b1 <!
b1010 =!
b10 >!
b1000 @!
b1 A!
b1000 B
b101000 C
b101 D
b11 E
b101 G!
b0 H!
b100100 J!
b1001 K!
b0 L!
b0 M!
b0 N!
b100100 Q
b0 Q!
b11 R
b1100100 R!
b101 S
b10 U
b1 V
b1010 W
b101000 W!
b10 X
b100000 X!
b1000 Y!
b0 \
b11 ]
b101 ^
b11 _
b101 `
b1000 a
b1 b
0c
b101000 d
b100100 e
1g
1h
0i
b101 p
b0 q
b100100 s
b1001 t
b101000 y
b100000 z
b101100 {
b101000 |
b1000001011010110110011 }
#130000
0!
0&
#135000
1!
0!!
0"!
0#!
1$!
0%!
1&
0&!
1'!
0(
0(!
b0 )!
b101000 *
b1000000000000 *!
b110000 +
b110111 +!
b10011100000011 ,
b101100 .
b1011000110111 /
b110111 0
b0 1
b0 2
b1100 3
b1 4
b101000 7!
b101 8!
b11 9!
1:
b1 ;!
b10 <!
1=
b1011 =!
b11 >!
b0 ?
b1000000000000 @
b1001 @!
b0 A!
b1001 B
b0 C
b0 D
b0 E
b10 G!
b1 H!
b101 I!
b101000 J!
b1010 K!
b0 L!
b0 M!
b0 N!
b1 P!
b101000 Q
b101 R
b11 S
b1 U
b10 V
b1011 W
b0 W!
b11 X
b100100 X!
b1001 Y!
b1 \
b101 ]
b11 ^
b101 _
b11 `
b1001 a
b0 b
1c
b101100 d
b101000 e
0g
0h
0i
b10 p
b1 q
b101 r
b101000 s
b1010 t
b0 y
b100100 z
b110000 {
b101100 |
b1011000110111 }
1~
#140000
0!
0&
#145000
1!
1!!
0"!
1#!
1$!
0%!
1&
0&!
0'!
0(
0(!
0)
b0 )!
b1000000101100 *
b0 *!
b110100 +
b11 +!
b10000000010011110000011 ,
b110000 .
b10011100000011 /
b11 0
11!
b1110 3
b10 4
14!
b0 6!
17
b101100 7!
b0 8!
19
b0 9!
b1000000000000 :!
b0 ;!
b0 <!
0=
b1100 =!
b1 >!
b0 @
b1010 @!
b1000000000000 A!
b1010 B
b1 C
b11 G!
b0 H!
b11 I!
b101100 J!
1K
b1011 K!
b0 L!
b0 M!
1N
b0 N!
b0 P
b0 P!
b101100 Q
b0 R
b0 S
b1000000000000 T
b0 U
b0 V
b1100 W
b1 W!
b1 X
b101000 X!
b1010 Y!
b0 \
b0 ]
b0 ^
b0 _
b1000000000000 `
b1010 a
b1000000000000 b
0c
b110000 d
b1000000101100 e
b1000000000000 f
0g
0h
1i
0j
b11 p
b0 q
b11 r
b101100 s
b1011 t
b1 y
b101000 z
b110100 {
b110000 |
b10011100000011 }
1~
#150000
0!
0&
#155000
1!
1&
0(
0)
b110000 *
b100 *!
b111000 +
b100000010010000100011 ,
b110100 .
1.!
b10000000010011110000011 /
10!
b100 2
b1111 3
04!
b110000 7!
b0 :!
b1110 =!
b10 >!
b100 @
b0 @!
b0 A!
b1011 B
b0 C
b10 E
b1 G!
1H
b1000000000000 H!
b0 I!
1J
b110000 J!
b1100 K!
b0 L!
b0 M!
0N
b0 N!
b110000 Q
b10000000000 Q!
bx R!
b0 T
b1110 W
b0 W!
b10 X
b101100 X!
b1011 Y!
b1000000000000 \
b0 ]
b0 ^
b0 _
b0 `
b0 a
b0 b
1c
b110100 d
b110000 e
b0 f
0i
b1 p
b1000000000000 q
b0 r
b110000 s
b1100 t
b0 y
b101100 z
b111000 {
b110100 |
b10000000010011110000011 }
#160000
0!
0&
#165000
1!
0!!
1"!
0#!
1$!
0%!
1&
0&!
0'!
0(
0(!
b0 )!
b111000 *
b1000 *!
b111100 +
b100011 +!
b10011 ,
b111000 .
b100000010010000100011 /
b100011 0
b1 2
b1000 3
06
07
b110100 7!
18
09
b10 9!
b100 :!
b100 <!
b1111 =!
b1000 @
b100 A!
b1100 B
b1000000000000 C
1C!
b101 E
1E!
b10 G!
b0 H!
b110100 J!
b1110 K!
b0 L!
b0 M!
b1100100 N!
b110100 Q
b0 Q!
b1100100 R!
b10 S
b100 T
b100 V
b1111 W
b1000000000000 W!
b110000 X!
b1100 Y!
b0 \
b0 ]
b10 ^
b0 _
b100 `
b100 b
0c
b111000 d
b111000 e
b100 f
1g
1h
0i
1l
1n
b10 p
b0 q
b110100 s
b1110 t
b1100100 u
b1000000000000 y
b110000 z
b111100 {
b111000 |
b100000010010000100011 }
0~
#170000
0!
0&
#175000
1!
0!!
0"!
0#!
1$!
0%!
1&
0&!
0'!
0(
0(!
b11 )!
b1000000 *
b0 *!
b1000000 +
b10011 +!
0-!
b111100 .
0.!
b10011 /
1/!
b10011 0
00!
b0 2
b0 3
b0 4
16
b111000 7!
08
b101 9!
b1000 :!
b1 <!
b1000 =!
b11 ?
b0 @
b1000 A!
b1110 B
b1100100 C
b0 E
0G
0H
b100 H!
1I
b10 I!
0J
b111000 J!
b1111 K!
b0 L!
b0 M!
b11001000 N!
b111000 Q
b1 Q!
b11001000 R!
b101 S
b1000 T
1T!
b1 V
b1100100 V!
b1000 W
b0 W!
b110100 X!
b1110 Y!
b100 \
b0 ]
b101 ^
b0 _
b1000 `
b1000 b
0c
b111100 d
b1000000 e
b1000 f
1g
1h
b100 q
b10 r
b111000 s
b1111 t
b11001000 u
1v
b1100100 x
b0 y
b110100 z
b1000000 {
b111100 |
b10011 }
1~
#180000
0!
0&
#185000
1!
1&
0(
0)
b111100 *
b1000100 +
1-!
b1000000 .
0/!
b11 6!
b111100 7!
b0 9!
b0 :!
b0 <!
b0 =!
b0 >!
b0 @!
b0 A!
b1111 B
0B!
b11001000 C
0C!
1D!
0E!
1G
b1000 H!
0I
b101 I!
b111100 J!
b1000 K!
b0 L!
b0 M!
b0 N!
b11 P
b111100 Q
b10 Q!
b11111111111111111111111111111111 R!
b0 S
b0 T
b0 V
b11001000 V!
b0 W
b100 W!
b0 X
b111000 X!
b1111 Y!
b1000 \
b0 ]
b0 ^
b0 _
b0 `
b0 b
1c
b1000000 d
b111100 e
b0 f
0g
0h
1i
0k
0l
1m
0n
b1000 q
b101 r
b111100 s
b1000 t
b0 u
b11001000 x
b100 y
b111000 z
b1000100 {
b1000000 |
#190000
0!
0&
#195000
1!
1&
b1000000 *
b1001000 +
b1000100 .
b1000000 7!
0A
b1000 B
1B!
b1000 C
0D!
b0 G!
b0 H!
b0 I!
b1000000 J!
b0 K!
b0 L!
b0 M!
b0 N!
b1000000 Q
b0 Q!
b1100100 R!
0S!
0T!
b0 V!
b1000 W!
b111100 X!
b1000 Y!
b0 \
b0 ]
b0 ^
b0 _
b1000100 d
b1000000 e
1k
0m
b0 p
b0 q
b0 r
b1000000 s
b0 t
0v
b0 x
b1000 y
b111100 z
b1001000 {
b1000100 |
#200000
0!
0&
#205000
1!
1&
b1000100 *
b1001100 +
bx ,
b1001000 .
b1000100 7!
1A
b0 B
b0 C
b1000100 J!
b0 L!
b0 M!
b1000100 Q
1S!
b0 W!
b1000000 X!
b0 Y!
b0 ]
b0 ^
b0 _
b1001000 d
b1000100 e
b1000100 s
b0 y
b1000000 z
b1001100 {
b1001000 |
#210000
0!
0&
#215000
1!
0!!
0"!
0#!
0$!
0%!
1&
0&!
0'!
0(
0(!
b0 )!
b1001000 *
b0 *!
b1010000 +
bx +!
b1001100 .
bx /
bx 0
bx 1
bx 2
bx 3
bx 4
x5
06
b1001000 7!
0:
b0 ?
b0 C
bx D
bx E
b1001000 J!
b1001000 Q
b1000100 X!
b0 _
b1001100 d
b1001000 e
b1001000 s
b1000100 z
b1010000 {
b1001100 |
bx }
0~
#220000
0!
0&
#225000
1!
1&
0(
0)
b1001100 *
b1010100 +
0-!
b1010000 .
01!
b0 6!
b1001100 7!
bx 8!
bx 9!
bx ;!
bx <!
bx =!
bx >!
x?!
b0 @!
bx A!
b0 C
0G
b1001100 J!
0K
b0 L!
b0 M!
b0 P
b1001100 Q
bx R
bx S
bx U
bx V
bx W
bx X
b1001000 X!
xY
bx ]
bx ^
bx _
bx `
bx b
xc
b1010000 d
b1001100 e
bx0 f
xg
xh
xi
0j
b1001100 s
b1001000 z
b1010100 {
b1010000 |
#230000
0!
0&
#235000
1!
1&
b1010000 *
b1011000 +
b1010100 .
b1010000 7!
0B!
b0 C
bx G!
bx H!
bx I!
b1010000 J!
bx K!
b0 L!
b0 M!
b0 N!
b0xx P!
b1010000 Q
bx Q!
bx R!
b1001100 X!
bx \
bx ]
bx ^
bx _
b1010100 d
b1010000 e
0k
bx p
bx q
bx r
b1010000 s
bx t
b1001100 z
b1011000 {
b1010100 |
#240000
0!
0&
#245000
1!
1&
b1010100 *
b1011100 +
b1011000 .
b1010100 7!
0A
bx B
bx C
b1010100 J!
b0 L!
b0 M!
b1010100 Q
0S!
bx W!
b1010000 X!
bx Y!
bx ]
bx ^
bx _
b1011000 d
b1010100 e
b1010100 s
bx y
b1010000 z
b1011100 {
b1011000 |
#250000
0!
0&
#255000
1!
1&
b1011000 *
b1100000 +
b1011100 .
b1011000 7!
bx C
b1011000 J!
b1011000 Q
b1010100 X!
bx _
b1011100 d
b1011000 e
b1011000 s
b1010100 z
b1100000 {
b1011100 |
#260000
0!
0&
#265000
1!
1&
b1011100 *
b1100100 +
b1100000 .
b1011100 7!
bx C
b1011100 J!
b1011100 Q
b1011000 X!
bx _
b1100000 d
b1011100 e
b1011100 s
b1011000 z
b1100100 {
b1100000 |
#270000
0!
0&
#275000
1!
1&
b1100000 *
b1101000 +
b1100100 .
b1100000 7!
bx C
b1100000 J!
b1100000 Q
b1011100 X!
bx _
b1100100 d
b1100000 e
b1100000 s
b1011100 z
b1101000 {
b1100100 |
#280000
0!
0&
#285000
1!
1&
b1100100 *
b1101100 +
b1101000 .
b1100100 7!
bx C
b1100100 J!
b1100100 Q
b1100000 X!
bx _
b1101000 d
b1100100 e
b1100100 s
b1100000 z
b1101100 {
b1101000 |
#290000
0!
0&
#295000
1!
1&
b1101000 *
b1110000 +
b1101100 .
b1101000 7!
bx C
b1101000 J!
b1101000 Q
b1100100 X!
bx _
b1101100 d
b1101000 e
b1101000 s
b1100100 z
b1110000 {
b1101100 |
#300000
0!
0&
#305000
1!
1&
b1101100 *
b1110100 +
b1110000 .
b1101100 7!
bx C
b1101100 J!
b1101100 Q
b1101000 X!
bx _
b1110000 d
b1101100 e
b1101100 s
b1101000 z
b1110100 {
b1110000 |
#310000
0!
0&
#315000
1!
1&
b1110000 *
b1111000 +
b1110100 .
b1110000 7!
bx C
b1110000 J!
b1110000 Q
b1101100 X!
bx _
b1110100 d
b1110000 e
b1110000 s
b1101100 z
b1111000 {
b1110100 |
#320000
0!
0&
#325000
1!
1&
b1110100 *
b1111100 +
b1111000 .
b1110100 7!
bx C
b1110100 J!
b1110100 Q
b1110000 X!
bx _
b1111000 d
b1110100 e
b1110100 s
b1110000 z
b1111100 {
b1111000 |
#330000
0!
0&
#335000
1!
1&
b1111000 *
b10000000 +
b1111100 .
b1111000 7!
bx C
b1111000 J!
b1111000 Q
b1110100 X!
bx _
b1111100 d
b1111000 e
b1111000 s
b1110100 z
b10000000 {
b1111100 |
#340000
0!
0&
