sim_logs/xsim_8576.backup.log
#-----------------------------------------------------------
# xsim v2022.2 (64-bit)
# SW Build 3671981 on Fri Oct 14 05:00:03 MDT 2022
# IP Build 3669848 on Fri Oct 14 08:30:02 MDT 2022
# Start of session at: Sun Apr  5 13:18:51 2026
# Process ID: 8576
# Current directory: E:/Github/Gitpush/riscv_pipeline/sim_logs
# Command line: xsim.exe -mode tcl -source {xsim.dir/tb_top_snapshot/xsim_script.tcl}
# Log file: E:/Github/Gitpush/riscv_pipeline/sim_logs/xsim.log
# Journal file: E:/Github/Gitpush/riscv_pipeline/sim_logs\xsim.jou
# Running On: TuanUSau, OS: Windows, CPU Frequency: 3194 MHz, CPU Physical cores: 16, Host memory: 17024 MB
#-----------------------------------------------------------
source xsim.dir/tb_top_snapshot/xsim_script.tcl
# xsim {tb_top_snapshot} -autoloadwcfg -runall
Time resolution is 1 ps
run -all
WARNING: File tb/test_prog.hex referenced on E:/Github/Gitpush/riscv_pipeline/rtl/top.v at line 34 cannot be opened for reading. Please ensure that this file is available in the current working directory.
Time:                20000 | PC: 00000000 | x1:          0 | x2:          0 | x3:          0 | x4:          0 | x5:          0 | x6:          0 | x7:          0 | x8:          0
Time:                25000 | PC: 00000004 | x1:          0 | x2:          0 | x3:          0 | x4:          0 | x5:          0 | x6:          0 | x7:          0 | x8:          0
Time:                35000 | PC: 00000008 | x1:          0 | x2:          0 | x3:          0 | x4:          0 | x5:          0 | x6:          0 | x7:          0 | x8:          0
Time:                45000 | PC: 0000000c | x1:          0 | x2:          0 | x3:          0 | x4:          0 | x5:          0 | x6:          0 | x7:          0 | x8:          0
Time:                55000 | PC: 00000010 | x1:          0 | x2:          0 | x3:          0 | x4:          0 | x5:          0 | x6:          0 | x7:          0 | x8:          0
Time:                65000 | PC: 00000014 | x1:          0 | x2:          0 | x3:          0 | x4:          0 | x5:          0 | x6:          0 | x7:          0 | x8:          0
Time:                75000 | PC: 00000018 | x1:          0 | x2:          0 | x3:          0 | x4:          0 | x5:          0 | x6:          0 | x7:          0 | x8:          0
Time:                85000 | PC: 0000001c | x1:          0 | x2:          0 | x3:          0 | x4:          0 | x5:          0 | x6:          0 | x7:          0 | x8:          0
Time:                95000 | PC: 00000020 | x1:          0 | x2:          0 | x3:          0 | x4:          0 | x5:          0 | x6:          0 | x7:          0 | x8:          0
Time:               105000 | PC: 00000024 | x1:          0 | x2:          0 | x3:          0 | x4:          0 | x5:          0 | x6:          0 | x7:          0 | x8:          0
Time:               115000 | PC: 00000028 | x1:          0 | x2:          0 | x3:          0 | x4:          0 | x5:          0 | x6:          0 | x7:          0 | x8:          0
Time:               125000 | PC: 0000002c | x1:          0 | x2:          0 | x3:          0 | x4:          0 | x5:          0 | x6:          0 | x7:          0 | x8:          0
Time:               135000 | PC: 00000030 | x1:          0 | x2:          0 | x3:          0 | x4:          0 | x5:          0 | x6:          0 | x7:          0 | x8:          0
Time:               145000 | PC: 00000034 | x1:          0 | x2:          0 | x3:          0 | x4:          0 | x5:          0 | x6:          0 | x7:          0 | x8:          0
Time:               155000 | PC: 00000038 | x1:          0 | x2:          0 | x3:          0 | x4:          0 | x5:          0 | x6:          0 | x7:          0 | x8:          0
Time:               165000 | PC: 0000003c | x1:          0 | x2:          0 | x3:          0 | x4:          0 | x5:          0 | x6:          0 | x7:          0 | x8:          0
Time:               175000 | PC: 00000040 | x1:          0 | x2:          0 | x3:          0 | x4:          0 | x5:          0 | x6:          0 | x7:          0 | x8:          0
Time:               185000 | PC: 00000044 | x1:          0 | x2:          0 | x3:          0 | x4:          0 | x5:          0 | x6:          0 | x7:          0 | x8:          0
Time:               195000 | PC: 00000048 | x1:          0 | x2:          0 | x3:          0 | x4:          0 | x5:          0 | x6:          0 | x7:          0 | x8:          0
Time:               205000 | PC: 0000004c | x1:          0 | x2:          0 | x3:          0 | x4:          0 | x5:          0 | x6:          0 | x7:          0 | x8:          0
Time:               215000 | PC: 00000050 | x1:          0 | x2:          0 | x3:          0 | x4:          0 | x5:          0 | x6:          0 | x7:          0 | x8:          0
Time:               225000 | PC: 00000054 | x1:          0 | x2:          0 | x3:          0 | x4:          0 | x5:          0 | x6:          0 | x7:          0 | x8:          0
Time:               235000 | PC: 00000058 | x1:          0 | x2:          0 | x3:          0 | x4:          0 | x5:          0 | x6:          0 | x7:          0 | x8:          0
Time:               245000 | PC: 0000005c | x1:          0 | x2:          0 | x3:          0 | x4:          0 | x5:          0 | x6:          0 | x7:          0 | x8:          0
Time:               255000 | PC: 00000060 | x1:          0 | x2:          0 | x3:          0 | x4:          0 | x5:          0 | x6:          0 | x7:          0 | x8:          0
Time:               265000 | PC: 00000064 | x1:          0 | x2:          0 | x3:          0 | x4:          0 | x5:          0 | x6:          0 | x7:          0 | x8:          0
Time:               275000 | PC: 00000068 | x1:          0 | x2:          0 | x3:          0 | x4:          0 | x5:          0 | x6:          0 | x7:          0 | x8:          0
Time:               285000 | PC: 0000006c | x1:          0 | x2:          0 | x3:          0 | x4:          0 | x5:          0 | x6:          0 | x7:          0 | x8:          0
Time:               295000 | PC: 00000070 | x1:          0 | x2:          0 | x3:          0 | x4:          0 | x5:          0 | x6:          0 | x7:          0 | x8:          0
Time:               305000 | PC: 00000074 | x1:          0 | x2:          0 | x3:          0 | x4:          0 | x5:          0 | x6:          0 | x7:          0 | x8:          0
Time:               315000 | PC: 00000078 | x1:          0 | x2:          0 | x3:          0 | x4:          0 | x5:          0 | x6:          0 | x7:          0 | x8:          0
Simulation Finished
$finish called at time : 320 ns : File "E:/Github/Gitpush/riscv_pipeline/tb/tb_top.v" Line 43
exit
INFO: [Common 17-206] Exiting xsim at Sun Apr  5 13:18:53 2026...
